^E:\VISUAL STUDIO FILES\TIMELIMIT\TIMELIMIT\STDAFX.CPP
D:\IDE\MICROSOFT VISUAL STUDIO 2010\VC\BIN\1033\CLUI.DLL
C:\WINDOWS\GLOBALIZATION\SORTING\SORTDEFAULT.NLS
C:\WINDOWS\SYSTEM32\RSAENH.DLL
C:\WINDOWS\MICROSOFT.NET\FRAMEWORK\V2.0.50727\MSCORWKS.DLL
C:\WINDOWS\MICROSOFT.NET\FRAMEWORK\V4.0.30319\CLR.DLL
D:\IDE\MICROSOFT VISUAL STUDIO 2010\VC\BIN\CL.EXE.CONFIG
C:\WINDOWS\SYSTEM32\TZRES.DLL
C:\PROGRAM FILES\REFERENCE ASSEMBLIES\MICROSOFT\FRAMEWORK\.NETFRAMEWORK\V4.0\MSCORLIB.DLL
C:\PROGRAM FILES\REFERENCE ASSEMBLIES\MICROSOFT\FRAMEWORK\.NETFRAMEWORK\V4.0\SYSTEM.CORE.DLL
C:\PROGRAM FILES\REFERENCE ASSEMBLIES\MICROSOFT\FRAMEWORK\.NETFRAMEWORK\V4.0\SYSTEM.DATA.DLL
C:\PROGRAM FILES\REFERENCE ASSEMBLIES\MICROSOFT\FRAMEWORK\.NETFRAMEWORK\V4.0\SYSTEM.DLL
C:\PROGRAM FILES\REFERENCE ASSEMBLIES\MICROSOFT\FRAMEWORK\.NETFRAMEWORK\V4.0\SYSTEM.DRAWING.DLL
C:\PROGRAM FILES\REFERENCE ASSEMBLIES\MICROSOFT\FRAMEWORK\.NETFRAMEWORK\V4.0\SYSTEM.WINDOWS.FORMS.DLL
C:\PROGRAM FILES\REFERENCE ASSEMBLIES\MICROSOFT\FRAMEWORK\.NETFRAMEWORK\V4.0\SYSTEM.XML.DLL
E:\VISUAL STUDIO FILES\TIMELIMIT\TIMELIMIT\STDAFX.H
C:\PROGRAM FILES\REFERENCE ASSEMBLIES\MICROSOFT\FRAMEWORK\.NETFRAMEWORK\V4.0\MICROSOFT.VISUALC.DLL
^E:\VISUAL STUDIO FILES\TIMELIMIT\TIMELIMIT\ASSEMBLYINFO.CPP
E:\VISUAL STUDIO FILES\TIMELIMIT\TIMELIMIT\RELEASE\TIMELIMIT.PCH
D:\IDE\MICROSOFT VISUAL STUDIO 2010\VC\BIN\CL.EXE.CONFIG
C:\PROGRAM FILES\REFERENCE ASSEMBLIES\MICROSOFT\FRAMEWORK\.NETFRAMEWORK\V4.0\MSCORLIB.DLL
C:\PROGRAM FILES\REFERENCE ASSEMBLIES\MICROSOFT\FRAMEWORK\.NETFRAMEWORK\V4.0\SYSTEM.CORE.DLL
C:\PROGRAM FILES\REFERENCE ASSEMBLIES\MICROSOFT\FRAMEWORK\.NETFRAMEWORK\V4.0\SYSTEM.DATA.DLL
C:\PROGRAM FILES\REFERENCE ASSEMBLIES\MICROSOFT\FRAMEWORK\.NETFRAMEWORK\V4.0\SYSTEM.DLL
C:\PROGRAM FILES\REFERENCE ASSEMBLIES\MICROSOFT\FRAMEWORK\.NETFRAMEWORK\V4.0\SYSTEM.DRAWING.DLL
C:\PROGRAM FILES\REFERENCE ASSEMBLIES\MICROSOFT\FRAMEWORK\.NETFRAMEWORK\V4.0\SYSTEM.WINDOWS.FORMS.DLL
C:\PROGRAM FILES\REFERENCE ASSEMBLIES\MICROSOFT\FRAMEWORK\.NETFRAMEWORK\V4.0\SYSTEM.XML.DLL
E:\VISUAL STUDIO FILES\TIMELIMIT\TIMELIMIT\RELEASE\STDAFX.OBJ
C:\PROGRAM FILES\REFERENCE ASSEMBLIES\MICROSOFT\FRAMEWORK\.NETFRAMEWORK\V4.0\MICROSOFT.VISUALC.DLL
^E:\VISUAL STUDIO FILES\TIMELIMIT\TIMELIMIT\CHANGE1.CPP
E:\VISUAL STUDIO FILES\TIMELIMIT\TIMELIMIT\RELEASE\TIMELIMIT.PCH
D:\IDE\MICROSOFT VISUAL STUDIO 2010\VC\BIN\CL.EXE.CONFIG
C:\PROGRAM FILES\REFERENCE ASSEMBLIES\MICROSOFT\FRAMEWORK\.NETFRAMEWORK\V4.0\MSCORLIB.DLL
C:\PROGRAM FILES\REFERENCE ASSEMBLIES\MICROSOFT\FRAMEWORK\.NETFRAMEWORK\V4.0\SYSTEM.CORE.DLL
C:\PROGRAM FILES\REFERENCE ASSEMBLIES\MICROSOFT\FRAMEWORK\.NETFRAMEWORK\V4.0\SYSTEM.DATA.DLL
C:\PROGRAM FILES\REFERENCE ASSEMBLIES\MICROSOFT\FRAMEWORK\.NETFRAMEWORK\V4.0\SYSTEM.DLL
C:\PROGRAM FILES\REFERENCE ASSEMBLIES\MICROSOFT\FRAMEWORK\.NETFRAMEWORK\V4.0\SYSTEM.DRAWING.DLL
C:\PROGRAM FILES\REFERENCE ASSEMBLIES\MICROSOFT\FRAMEWORK\.NETFRAMEWORK\V4.0\SYSTEM.WINDOWS.FORMS.DLL
C:\PROGRAM FILES\REFERENCE ASSEMBLIES\MICROSOFT\FRAMEWORK\.NETFRAMEWORK\V4.0\SYSTEM.XML.DLL
E:\VISUAL STUDIO FILES\TIMELIMIT\TIMELIMIT\RELEASE\STDAFX.OBJ
E:\VISUAL STUDIO FILES\TIMELIMIT\TIMELIMIT\CHANGE1.H
D:\IDE\MICROSOFT VISUAL STUDIO 2010\VC\INCLUDE\VECTOR
D:\IDE\MICROSOFT VISUAL STUDIO 2010\VC\INCLUDE\MEMORY
D:\IDE\MICROSOFT VISUAL STUDIO 2010\VC\INCLUDE\XMEMORY
D:\IDE\MICROSOFT VISUAL STUDIO 2010\VC\INCLUDE\CSTDLIB
D:\IDE\MICROSOFT VISUAL STUDIO 2010\VC\INCLUDE\YVALS.H
D:\IDE\MICROSOFT VISUAL STUDIO 2010\VC\INCLUDE\CRTDEFS.H
D:\IDE\MICROSOFT VISUAL STUDIO 2010\VC\INCLUDE\SAL.H
D:\IDE\MICROSOFT VISUAL STUDIO 2010\VC\INCLUDE\CODEANALYSIS\SOURCEANNOTATIONS.H
D:\IDE\MICROSOFT VISUAL STUDIO 2010\VC\INCLUDE\VADEFS.H
D:\IDE\MICROSOFT VISUAL STUDIO 2010\VC\INCLUDE\USE_ANSI.H
D:\IDE\MICROSOFT VISUAL STUDIO 2010\VC\INCLUDE\STDLIB.H
D:\IDE\MICROSOFT VISUAL STUDIO 2010\VC\INCLUDE\LIMITS.H
D:\IDE\MICROSOFT VISUAL STUDIO 2010\VC\INCLUDE\NEW
D:\IDE\MICROSOFT VISUAL STUDIO 2010\VC\INCLUDE\EXCEPTION
D:\IDE\MICROSOFT VISUAL STUDIO 2010\VC\INCLUDE\XSTDDEF
D:\IDE\MICROSOFT VISUAL STUDIO 2010\VC\INCLUDE\CSTDDEF
D:\IDE\MICROSOFT VISUAL STUDIO 2010\VC\INCLUDE\STDDEF.H
D:\IDE\MICROSOFT VISUAL STUDIO 2010\VC\INCLUDE\EH.H
D:\IDE\MICROSOFT VISUAL STUDIO 2010\VC\INCLUDE\MALLOC.H
D:\IDE\MICROSOFT VISUAL STUDIO 2010\VC\INCLUDE\STRING.H
D:\IDE\MICROSOFT VISUAL STUDIO 2010\VC\INCLUDE\XUTILITY
D:\IDE\MICROSOFT VISUAL STUDIO 2010\VC\INCLUDE\CLIMITS
D:\IDE\MICROSOFT VISUAL STUDIO 2010\VC\INCLUDE\UTILITY
D:\IDE\MICROSOFT VISUAL STUDIO 2010\VC\INCLUDE\IOSFWD
D:\IDE\MICROSOFT VISUAL STUDIO 2010\VC\INCLUDE\CSTDIO
D:\IDE\MICROSOFT VISUAL STUDIO 2010\VC\INCLUDE\STDIO.H
D:\IDE\MICROSOFT VISUAL STUDIO 2010\VC\INCLUDE\SWPRINTF.INL
D:\IDE\MICROSOFT VISUAL STUDIO 2010\VC\INCLUDE\CSTRING
D:\IDE\MICROSOFT VISUAL STUDIO 2010\VC\INCLUDE\CWCHAR
D:\IDE\MICROSOFT VISUAL STUDIO 2010\VC\INCLUDE\WCHAR.H
D:\IDE\MICROSOFT VISUAL STUDIO 2010\VC\INCLUDE\WTIME.INL
D:\IDE\MICROSOFT VISUAL STUDIO 2010\VC\INCLUDE\CRTDBG.H
D:\IDE\MICROSOFT VISUAL STUDIO 2010\VC\INCLUDE\TYPE_TRAITS
D:\IDE\MICROSOFT VISUAL STUDIO 2010\VC\INCLUDE\LIMITS
D:\IDE\MICROSOFT VISUAL STUDIO 2010\VC\INCLUDE\YMATH.H
D:\IDE\MICROSOFT VISUAL STUDIO 2010\VC\INCLUDE\CFLOAT
D:\IDE\MICROSOFT VISUAL STUDIO 2010\VC\INCLUDE\FLOAT.H
D:\IDE\MICROSOFT VISUAL STUDIO 2010\VC\INCLUDE\CRTWRN.H
D:\IDE\MICROSOFT VISUAL STUDIO 2010\VC\INCLUDE\CMATH
D:\IDE\MICROSOFT VISUAL STUDIO 2010\VC\INCLUDE\MATH.H
D:\IDE\MICROSOFT VISUAL STUDIO 2010\VC\INCLUDE\XTR1COMMON
D:\IDE\MICROSOFT VISUAL STUDIO 2010\VC\INCLUDE\XFWRAP
D:\IDE\MICROSOFT VISUAL STUDIO 2010\VC\INCLUDE\XFWRAP1
D:\IDE\MICROSOFT VISUAL STUDIO 2010\VC\INCLUDE\XXTYPE_TRAITS
D:\IDE\MICROSOFT VISUAL STUDIO 2010\VC\INCLUDE\TYPEINFO
D:\IDE\MICROSOFT VISUAL STUDIO 2010\VC\INCLUDE\INTRIN.H
D:\IDE\MICROSOFT VISUAL STUDIO 2010\VC\INCLUDE\SETJMP.H
D:\IDE\MICROSOFT VISUAL STUDIO 2010\VC\INCLUDE\SETJMPEX.H
D:\IDE\MICROSOFT VISUAL STUDIO 2010\VC\INCLUDE\XXSHARED
D:\IDE\MICROSOFT VISUAL STUDIO 2010\VC\INCLUDE\STDEXCEPT
D:\IDE\MICROSOFT VISUAL STUDIO 2010\VC\INCLUDE\XSTRING
D:\IDE\MICROSOFT VISUAL STUDIO 2010\VC\INCLUDE\XFUNCTIONAL
E:\VISUAL STUDIO FILES\TIMELIMIT\TIMELIMIT\TYPE.H
C:\PROGRAM FILES\REFERENCE ASSEMBLIES\MICROSOFT\FRAMEWORK\.NETFRAMEWORK\V4.0\MICROSOFT.VISUALC.DLL
^E:\VISUAL STUDIO FILES\TIMELIMIT\TIMELIMIT\FORM1.CPP
E:\VISUAL STUDIO FILES\TIMELIMIT\TIMELIMIT\RELEASE\TIMELIMIT.PCH
D:\IDE\MICROSOFT VISUAL STUDIO 2010\VC\BIN\CL.EXE.CONFIG
C:\PROGRAM FILES\REFERENCE ASSEMBLIES\MICROSOFT\FRAMEWORK\.NETFRAMEWORK\V4.0\MSCORLIB.DLL
C:\PROGRAM FILES\REFERENCE ASSEMBLIES\MICROSOFT\FRAMEWORK\.NETFRAMEWORK\V4.0\SYSTEM.CORE.DLL
C:\PROGRAM FILES\REFERENCE ASSEMBLIES\MICROSOFT\FRAMEWORK\.NETFRAMEWORK\V4.0\SYSTEM.DATA.DLL
C:\PROGRAM FILES\REFERENCE ASSEMBLIES\MICROSOFT\FRAMEWORK\.NETFRAMEWORK\V4.0\SYSTEM.DLL
C:\PROGRAM FILES\REFERENCE ASSEMBLIES\MICROSOFT\FRAMEWORK\.NETFRAMEWORK\V4.0\SYSTEM.DRAWING.DLL
C:\PROGRAM FILES\REFERENCE ASSEMBLIES\MICROSOFT\FRAMEWORK\.NETFRAMEWORK\V4.0\SYSTEM.WINDOWS.FORMS.DLL
C:\PROGRAM FILES\REFERENCE ASSEMBLIES\MICROSOFT\FRAMEWORK\.NETFRAMEWORK\V4.0\SYSTEM.XML.DLL
E:\VISUAL STUDIO FILES\TIMELIMIT\TIMELIMIT\RELEASE\STDAFX.OBJ
E:\VISUAL STUDIO FILES\TIMELIMIT\TIMELIMIT\FORM1.H
D:\IDE\MICROSOFT VISUAL STUDIO 2010\VC\INCLUDE\FSTREAM
D:\IDE\MICROSOFT VISUAL STUDIO 2010\VC\INCLUDE\ISTREAM
D:\IDE\MICROSOFT VISUAL STUDIO 2010\VC\INCLUDE\OSTREAM
D:\IDE\MICROSOFT VISUAL STUDIO 2010\VC\INCLUDE\IOS
D:\IDE\MICROSOFT VISUAL STUDIO 2010\VC\INCLUDE\XLOCNUM
D:\IDE\MICROSOFT VISUAL STUDIO 2010\VC\INCLUDE\CLIMITS
D:\IDE\MICROSOFT VISUAL STUDIO 2010\VC\INCLUDE\YVALS.H
D:\IDE\MICROSOFT VISUAL STUDIO 2010\VC\INCLUDE\CRTDEFS.H
D:\IDE\MICROSOFT VISUAL STUDIO 2010\VC\INCLUDE\SAL.H
D:\IDE\MICROSOFT VISUAL STUDIO 2010\VC\INCLUDE\CODEANALYSIS\SOURCEANNOTATIONS.H
D:\IDE\MICROSOFT VISUAL STUDIO 2010\VC\INCLUDE\VADEFS.H
D:\IDE\MICROSOFT VISUAL STUDIO 2010\VC\INCLUDE\USE_ANSI.H
D:\IDE\MICROSOFT VISUAL STUDIO 2010\VC\INCLUDE\LIMITS.H
D:\IDE\MICROSOFT VISUAL STUDIO 2010\VC\INCLUDE\CMATH
D:\IDE\MICROSOFT VISUAL STUDIO 2010\VC\INCLUDE\MATH.H
D:\IDE\MICROSOFT VISUAL STUDIO 2010\VC\INCLUDE\CSTDIO
D:\IDE\MICROSOFT VISUAL STUDIO 2010\VC\INCLUDE\STDIO.H
D:\IDE\MICROSOFT VISUAL STUDIO 2010\VC\INCLUDE\SWPRINTF.INL
D:\IDE\MICROSOFT VISUAL STUDIO 2010\VC\INCLUDE\CSTDLIB
D:\IDE\MICROSOFT VISUAL STUDIO 2010\VC\INCLUDE\STDLIB.H
D:\IDE\MICROSOFT VISUAL STUDIO 2010\VC\INCLUDE\STREAMBUF
D:\IDE\MICROSOFT VISUAL STUDIO 2010\VC\INCLUDE\XIOSBASE
D:\IDE\MICROSOFT VISUAL STUDIO 2010\VC\INCLUDE\XLOCALE
D:\IDE\MICROSOFT VISUAL STUDIO 2010\VC\INCLUDE\CSTRING
D:\IDE\MICROSOFT VISUAL STUDIO 2010\VC\INCLUDE\STRING.H
D:\IDE\MICROSOFT VISUAL STUDIO 2010\VC\INCLUDE\STDEXCEPT
D:\IDE\MICROSOFT VISUAL STUDIO 2010\VC\INCLUDE\EXCEPTION
D:\IDE\MICROSOFT VISUAL STUDIO 2010\VC\INCLUDE\XSTDDEF
D:\IDE\MICROSOFT VISUAL STUDIO 2010\VC\INCLUDE\CSTDDEF
D:\IDE\MICROSOFT VISUAL STUDIO 2010\VC\INCLUDE\STDDEF.H
D:\IDE\MICROSOFT VISUAL STUDIO 2010\VC\INCLUDE\EH.H
D:\IDE\MICROSOFT VISUAL STUDIO 2010\VC\INCLUDE\MALLOC.H
D:\IDE\MICROSOFT VISUAL STUDIO 2010\VC\INCLUDE\XSTRING
D:\IDE\MICROSOFT VISUAL STUDIO 2010\VC\INCLUDE\XMEMORY
D:\IDE\MICROSOFT VISUAL STUDIO 2010\VC\INCLUDE\NEW
D:\IDE\MICROSOFT VISUAL STUDIO 2010\VC\INCLUDE\XUTILITY
D:\IDE\MICROSOFT VISUAL STUDIO 2010\VC\INCLUDE\UTILITY
D:\IDE\MICROSOFT VISUAL STUDIO 2010\VC\INCLUDE\IOSFWD
D:\IDE\MICROSOFT VISUAL STUDIO 2010\VC\INCLUDE\CWCHAR
D:\IDE\MICROSOFT VISUAL STUDIO 2010\VC\INCLUDE\WCHAR.H
D:\IDE\MICROSOFT VISUAL STUDIO 2010\VC\INCLUDE\WTIME.INL
D:\IDE\MICROSOFT VISUAL STUDIO 2010\VC\INCLUDE\CRTDBG.H
D:\IDE\MICROSOFT VISUAL STUDIO 2010\VC\INCLUDE\TYPE_TRAITS
D:\IDE\MICROSOFT VISUAL STUDIO 2010\VC\INCLUDE\LIMITS
D:\IDE\MICROSOFT VISUAL STUDIO 2010\VC\INCLUDE\YMATH.H
D:\IDE\MICROSOFT VISUAL STUDIO 2010\VC\INCLUDE\CFLOAT
D:\IDE\MICROSOFT VISUAL STUDIO 2010\VC\INCLUDE\FLOAT.H
D:\IDE\MICROSOFT VISUAL STUDIO 2010\VC\INCLUDE\CRTWRN.H
D:\IDE\MICROSOFT VISUAL STUDIO 2010\VC\INCLUDE\XTR1COMMON
D:\IDE\MICROSOFT VISUAL STUDIO 2010\VC\INCLUDE\XFWRAP
D:\IDE\MICROSOFT VISUAL STUDIO 2010\VC\INCLUDE\XFWRAP1
D:\IDE\MICROSOFT VISUAL STUDIO 2010\VC\INCLUDE\XXTYPE_TRAITS
D:\IDE\MICROSOFT VISUAL STUDIO 2010\VC\INCLUDE\TYPEINFO
D:\IDE\MICROSOFT VISUAL STUDIO 2010\VC\INCLUDE\XLOCINFO
D:\IDE\MICROSOFT VISUAL STUDIO 2010\VC\INCLUDE\XLOCINFO.H
D:\IDE\MICROSOFT VISUAL STUDIO 2010\VC\INCLUDE\CTYPE.H
D:\IDE\MICROSOFT VISUAL STUDIO 2010\VC\INCLUDE\LOCALE.H
D:\IDE\MICROSOFT VISUAL STUDIO 2010\VC\INCLUDE\XDEBUG
D:\IDE\MICROSOFT VISUAL STUDIO 2010\VC\INCLUDE\SYSTEM_ERROR
D:\IDE\MICROSOFT VISUAL STUDIO 2010\VC\INCLUDE\CERRNO
D:\IDE\MICROSOFT VISUAL STUDIO 2010\VC\INCLUDE\ERRNO.H
D:\IDE\MICROSOFT VISUAL STUDIO 2010\VC\INCLUDE\SHARE.H
D:\IDE\MICROSOFT VISUAL STUDIO 2010\VC\INCLUDE\VECTOR
D:\IDE\MICROSOFT VISUAL STUDIO 2010\VC\INCLUDE\MEMORY
D:\IDE\MICROSOFT VISUAL STUDIO 2010\VC\INCLUDE\INTRIN.H
D:\IDE\MICROSOFT VISUAL STUDIO 2010\VC\INCLUDE\SETJMP.H
D:\IDE\MICROSOFT VISUAL STUDIO 2010\VC\INCLUDE\SETJMPEX.H
D:\IDE\MICROSOFT VISUAL STUDIO 2010\VC\INCLUDE\XXSHARED
D:\IDE\MICROSOFT VISUAL STUDIO 2010\VC\INCLUDE\XFUNCTIONAL
D:\IDE\MICROSOFT VISUAL STUDIO 2010\VC\INCLUDE\STRING
D:\IDE\MICROSOFT VISUAL STUDIO 2010\VC\INCLUDE\STRSTREAM
D:\IDE\MICROSOFT VISUAL STUDIO 2010\VC\INCLUDE\ALGORITHM
E:\VISUAL STUDIO FILES\TIMELIMIT\TIMELIMIT\STRCONVERT.H
D:\IDE\MICROSOFT VISUAL STUDIO 2010\VC\INCLUDE\VCCLR.H
D:\IDE\MICROSOFT VISUAL STUDIO 2010\VC\INCLUDE\GCROOT.H
D:\IDE\MICROSOFT VISUAL STUDIO 2010\VC\INCLUDE\MSCLR\GCROOT.H
C:\PROGRAM FILES\MICROSOFT SDKS\WINDOWS\V7.0A\INCLUDE\WINDOWS.H
C:\PROGRAM FILES\MICROSOFT SDKS\WINDOWS\V7.0A\INCLUDE\SDKDDKVER.H
D:\IDE\MICROSOFT VISUAL STUDIO 2010\VC\INCLUDE\EXCPT.H
D:\IDE\MICROSOFT VISUAL STUDIO 2010\VC\INCLUDE\STDARG.H
C:\PROGRAM FILES\MICROSOFT SDKS\WINDOWS\V7.0A\INCLUDE\WINDEF.H
C:\PROGRAM FILES\MICROSOFT SDKS\WINDOWS\V7.0A\INCLUDE\WINNT.H
C:\PROGRAM FILES\MICROSOFT SDKS\WINDOWS\V7.0A\INCLUDE\SPECSTRINGS.H
C:\PROGRAM FILES\MICROSOFT SDKS\WINDOWS\V7.0A\INCLUDE\SAL_SUPP.H
C:\PROGRAM FILES\MICROSOFT SDKS\WINDOWS\V7.0A\INCLUDE\SPECSTRINGS_SUPP.H
C:\PROGRAM FILES\MICROSOFT SDKS\WINDOWS\V7.0A\INCLUDE\SPECSTRINGS_STRICT.H
C:\PROGRAM FILES\MICROSOFT SDKS\WINDOWS\V7.0A\INCLUDE\SPECSTRINGS_UNDEF.H
C:\PROGRAM FILES\MICROSOFT SDKS\WINDOWS\V7.0A\INCLUDE\DRIVERSPECS.H
C:\PROGRAM FILES\MICROSOFT SDKS\WINDOWS\V7.0A\INCLUDE\SDV_DRIVERSPECS.H
C:\PROGRAM FILES\MICROSOFT SDKS\WINDOWS\V7.0A\INCLUDE\KERNELSPECS.H
C:\PROGRAM FILES\MICROSOFT SDKS\WINDOWS\V7.0A\INCLUDE\BASETSD.H
C:\PROGRAM FILES\MICROSOFT SDKS\WINDOWS\V7.0A\INCLUDE\GUIDDEF.H
C:\PROGRAM FILES\MICROSOFT SDKS\WINDOWS\V7.0A\INCLUDE\PSHPACK4.H
C:\PROGRAM FILES\MICROSOFT SDKS\WINDOWS\V7.0A\INCLUDE\POPPACK.H
C:\PROGRAM FILES\MICROSOFT SDKS\WINDOWS\V7.0A\INCLUDE\PSHPACK2.H
C:\PROGRAM FILES\MICROSOFT SDKS\WINDOWS\V7.0A\INCLUDE\PSHPACK8.H
C:\PROGRAM FILES\MICROSOFT SDKS\WINDOWS\V7.0A\INCLUDE\KTMTYPES.H
C:\PROGRAM FILES\MICROSOFT SDKS\WINDOWS\V7.0A\INCLUDE\WINBASE.H
C:\PROGRAM FILES\MICROSOFT SDKS\WINDOWS\V7.0A\INCLUDE\WINERROR.H
C:\PROGRAM FILES\MICROSOFT SDKS\WINDOWS\V7.0A\INCLUDE\WINGDI.H
C:\PROGRAM FILES\MICROSOFT SDKS\WINDOWS\V7.0A\INCLUDE\PSHPACK1.H
C:\PROGRAM FILES\MICROSOFT SDKS\WINDOWS\V7.0A\INCLUDE\WINUSER.H
C:\PROGRAM FILES\MICROSOFT SDKS\WINDOWS\V7.0A\INCLUDE\TVOUT.H
C:\PROGRAM FILES\MICROSOFT SDKS\WINDOWS\V7.0A\INCLUDE\WINNLS.H
C:\PROGRAM FILES\MICROSOFT SDKS\WINDOWS\V7.0A\INCLUDE\WINCON.H
C:\PROGRAM FILES\MICROSOFT SDKS\WINDOWS\V7.0A\INCLUDE\WINVER.H
C:\PROGRAM FILES\MICROSOFT SDKS\WINDOWS\V7.0A\INCLUDE\VERRSRC.H
C:\PROGRAM FILES\MICROSOFT SDKS\WINDOWS\V7.0A\INCLUDE\WINREG.H
C:\PROGRAM FILES\MICROSOFT SDKS\WINDOWS\V7.0A\INCLUDE\REASON.H
C:\PROGRAM FILES\MICROSOFT SDKS\WINDOWS\V7.0A\INCLUDE\WINNETWK.H
C:\PROGRAM FILES\MICROSOFT SDKS\WINDOWS\V7.0A\INCLUDE\WNNC.H
C:\PROGRAM FILES\MICROSOFT SDKS\WINDOWS\V7.0A\INCLUDE\CDERR.H
C:\PROGRAM FILES\MICROSOFT SDKS\WINDOWS\V7.0A\INCLUDE\DDE.H
C:\PROGRAM FILES\MICROSOFT SDKS\WINDOWS\V7.0A\INCLUDE\DDEML.H
C:\PROGRAM FILES\MICROSOFT SDKS\WINDOWS\V7.0A\INCLUDE\DLGS.H
C:\PROGRAM FILES\MICROSOFT SDKS\WINDOWS\V7.0A\INCLUDE\LZEXPAND.H
C:\PROGRAM FILES\MICROSOFT SDKS\WINDOWS\V7.0A\INCLUDE\MMSYSTEM.H
C:\PROGRAM FILES\MICROSOFT SDKS\WINDOWS\V7.0A\INCLUDE\NB30.H
C:\PROGRAM FILES\MICROSOFT SDKS\WINDOWS\V7.0A\INCLUDE\RPC.H
C:\PROGRAM FILES\MICROSOFT SDKS\WINDOWS\V7.0A\INCLUDE\RPCDCE.H
C:\PROGRAM FILES\MICROSOFT SDKS\WINDOWS\V7.0A\INCLUDE\RPCDCEP.H
C:\PROGRAM FILES\MICROSOFT SDKS\WINDOWS\V7.0A\INCLUDE\RPCNSI.H
C:\PROGRAM FILES\MICROSOFT SDKS\WINDOWS\V7.0A\INCLUDE\RPCNTERR.H
C:\PROGRAM FILES\MICROSOFT SDKS\WINDOWS\V7.0A\INCLUDE\RPCASYNC.H
C:\PROGRAM FILES\MICROSOFT SDKS\WINDOWS\V7.0A\INCLUDE\SHELLAPI.H
C:\PROGRAM FILES\MICROSOFT SDKS\WINDOWS\V7.0A\INCLUDE\WINPERF.H
C:\PROGRAM FILES\MICROSOFT SDKS\WINDOWS\V7.0A\INCLUDE\WINSOCK.H
C:\PROGRAM FILES\MICROSOFT SDKS\WINDOWS\V7.0A\INCLUDE\INADDR.H
C:\PROGRAM FILES\MICROSOFT SDKS\WINDOWS\V7.0A\INCLUDE\WINCRYPT.H
C:\PROGRAM FILES\MICROSOFT SDKS\WINDOWS\V7.0A\INCLUDE\BCRYPT.H
C:\PROGRAM FILES\MICROSOFT SDKS\WINDOWS\V7.0A\INCLUDE\NCRYPT.H
C:\PROGRAM FILES\MICROSOFT SDKS\WINDOWS\V7.0A\INCLUDE\WINEFS.H
C:\PROGRAM FILES\MICROSOFT SDKS\WINDOWS\V7.0A\INCLUDE\WINSCARD.H
C:\PROGRAM FILES\MICROSOFT SDKS\WINDOWS\V7.0A\INCLUDE\WTYPES.H
C:\PROGRAM FILES\MICROSOFT SDKS\WINDOWS\V7.0A\INCLUDE\RPCNDR.H
C:\PROGRAM FILES\MICROSOFT SDKS\WINDOWS\V7.0A\INCLUDE\RPCNSIP.H
C:\PROGRAM FILES\MICROSOFT SDKS\WINDOWS\V7.0A\INCLUDE\RPCSAL.H
C:\PROGRAM FILES\MICROSOFT SDKS\WINDOWS\V7.0A\INCLUDE\WINIOCTL.H
C:\PROGRAM FILES\MICROSOFT SDKS\WINDOWS\V7.0A\INCLUDE\WINSMCRD.H
C:\PROGRAM FILES\MICROSOFT SDKS\WINDOWS\V7.0A\INCLUDE\WINSPOOL.H
C:\PROGRAM FILES\MICROSOFT SDKS\WINDOWS\V7.0A\INCLUDE\PRSHT.H
C:\PROGRAM FILES\MICROSOFT SDKS\WINDOWS\V7.0A\INCLUDE\OLE2.H
C:\PROGRAM FILES\MICROSOFT SDKS\WINDOWS\V7.0A\INCLUDE\OBJBASE.H
C:\PROGRAM FILES\MICROSOFT SDKS\WINDOWS\V7.0A\INCLUDE\UNKNWN.H
C:\PROGRAM FILES\MICROSOFT SDKS\WINDOWS\V7.0A\INCLUDE\OBJIDL.H
C:\PROGRAM FILES\MICROSOFT SDKS\WINDOWS\V7.0A\INCLUDE\CGUID.H
C:\PROGRAM FILES\MICROSOFT SDKS\WINDOWS\V7.0A\INCLUDE\URLMON.H
C:\PROGRAM FILES\MICROSOFT SDKS\WINDOWS\V7.0A\INCLUDE\OLEIDL.H
C:\PROGRAM FILES\MICROSOFT SDKS\WINDOWS\V7.0A\INCLUDE\SERVPROV.H
C:\PROGRAM FILES\MICROSOFT SDKS\WINDOWS\V7.0A\INCLUDE\MSXML.H
C:\PROGRAM FILES\MICROSOFT SDKS\WINDOWS\V7.0A\INCLUDE\OAIDL.H
C:\PROGRAM FILES\MICROSOFT SDKS\WINDOWS\V7.0A\INCLUDE\PROPIDL.H
C:\PROGRAM FILES\MICROSOFT SDKS\WINDOWS\V7.0A\INCLUDE\OLEAUTO.H
C:\PROGRAM FILES\MICROSOFT SDKS\WINDOWS\V7.0A\INCLUDE\COMMDLG.H
C:\PROGRAM FILES\MICROSOFT SDKS\WINDOWS\V7.0A\INCLUDE\STRALIGN.H
C:\PROGRAM FILES\MICROSOFT SDKS\WINDOWS\V7.0A\INCLUDE\WINSVC.H
C:\PROGRAM FILES\MICROSOFT SDKS\WINDOWS\V7.0A\INCLUDE\MCX.H
C:\PROGRAM FILES\MICROSOFT SDKS\WINDOWS\V7.0A\INCLUDE\IMM.H
C:\PROGRAM FILES\MICROSOFT SDKS\WINDOWS\V7.0A\INCLUDE\IME_CMODES.H
E:\VISUAL STUDIO FILES\TIMELIMIT\TIMELIMIT\TYPE.H
E:\VISUAL STUDIO FILES\TIMELIMIT\TIMELIMIT\CHANGE1.H
C:\PROGRAM FILES\REFERENCE ASSEMBLIES\MICROSOFT\FRAMEWORK\.NETFRAMEWORK\V4.0\MICROSOFT.VISUALC.DLL
^E:\VISUAL STUDIO FILES\TIMELIMIT\TIMELIMIT\STRCONVERT.CPP
E:\VISUAL STUDIO FILES\TIMELIMIT\TIMELIMIT\RELEASE\TIMELIMIT.PCH
D:\IDE\MICROSOFT VISUAL STUDIO 2010\VC\BIN\CL.EXE.CONFIG
C:\PROGRAM FILES\REFERENCE ASSEMBLIES\MICROSOFT\FRAMEWORK\.NETFRAMEWORK\V4.0\MSCORLIB.DLL
C:\PROGRAM FILES\REFERENCE ASSEMBLIES\MICROSOFT\FRAMEWORK\.NETFRAMEWORK\V4.0\SYSTEM.CORE.DLL
C:\PROGRAM FILES\REFERENCE ASSEMBLIES\MICROSOFT\FRAMEWORK\.NETFRAMEWORK\V4.0\SYSTEM.DATA.DLL
C:\PROGRAM FILES\REFERENCE ASSEMBLIES\MICROSOFT\FRAMEWORK\.NETFRAMEWORK\V4.0\SYSTEM.DLL
C:\PROGRAM FILES\REFERENCE ASSEMBLIES\MICROSOFT\FRAMEWORK\.NETFRAMEWORK\V4.0\SYSTEM.DRAWING.DLL
C:\PROGRAM FILES\REFERENCE ASSEMBLIES\MICROSOFT\FRAMEWORK\.NETFRAMEWORK\V4.0\SYSTEM.WINDOWS.FORMS.DLL
C:\PROGRAM FILES\REFERENCE ASSEMBLIES\MICROSOFT\FRAMEWORK\.NETFRAMEWORK\V4.0\SYSTEM.XML.DLL
E:\VISUAL STUDIO FILES\TIMELIMIT\TIMELIMIT\RELEASE\STDAFX.OBJ
E:\VISUAL STUDIO FILES\TIMELIMIT\TIMELIMIT\STRCONVERT.H
D:\IDE\MICROSOFT VISUAL STUDIO 2010\VC\INCLUDE\VCCLR.H
D:\IDE\MICROSOFT VISUAL STUDIO 2010\VC\INCLUDE\GCROOT.H
D:\IDE\MICROSOFT VISUAL STUDIO 2010\VC\INCLUDE\STDDEF.H
D:\IDE\MICROSOFT VISUAL STUDIO 2010\VC\INCLUDE\CRTDEFS.H
D:\IDE\MICROSOFT VISUAL STUDIO 2010\VC\INCLUDE\SAL.H
D:\IDE\MICROSOFT VISUAL STUDIO 2010\VC\INCLUDE\CODEANALYSIS\SOURCEANNOTATIONS.H
D:\IDE\MICROSOFT VISUAL STUDIO 2010\VC\INCLUDE\VADEFS.H
D:\IDE\MICROSOFT VISUAL STUDIO 2010\VC\INCLUDE\MSCLR\GCROOT.H
D:\IDE\MICROSOFT VISUAL STUDIO 2010\VC\INCLUDE\STDLIB.H
D:\IDE\MICROSOFT VISUAL STUDIO 2010\VC\INCLUDE\LIMITS.H
D:\IDE\MICROSOFT VISUAL STUDIO 2010\VC\INCLUDE\STRING
D:\IDE\MICROSOFT VISUAL STUDIO 2010\VC\INCLUDE\ISTREAM
D:\IDE\MICROSOFT VISUAL STUDIO 2010\VC\INCLUDE\OSTREAM
D:\IDE\MICROSOFT VISUAL STUDIO 2010\VC\INCLUDE\IOS
D:\IDE\MICROSOFT VISUAL STUDIO 2010\VC\INCLUDE\XLOCNUM
D:\IDE\MICROSOFT VISUAL STUDIO 2010\VC\INCLUDE\CLIMITS
D:\IDE\MICROSOFT VISUAL STUDIO 2010\VC\INCLUDE\YVALS.H
D:\IDE\MICROSOFT VISUAL STUDIO 2010\VC\INCLUDE\USE_ANSI.H
D:\IDE\MICROSOFT VISUAL STUDIO 2010\VC\INCLUDE\CMATH
D:\IDE\MICROSOFT VISUAL STUDIO 2010\VC\INCLUDE\MATH.H
D:\IDE\MICROSOFT VISUAL STUDIO 2010\VC\INCLUDE\CSTDIO
D:\IDE\MICROSOFT VISUAL STUDIO 2010\VC\INCLUDE\STDIO.H
D:\IDE\MICROSOFT VISUAL STUDIO 2010\VC\INCLUDE\SWPRINTF.INL
D:\IDE\MICROSOFT VISUAL STUDIO 2010\VC\INCLUDE\CSTDLIB
D:\IDE\MICROSOFT VISUAL STUDIO 2010\VC\INCLUDE\STREAMBUF
D:\IDE\MICROSOFT VISUAL STUDIO 2010\VC\INCLUDE\XIOSBASE
D:\IDE\MICROSOFT VISUAL STUDIO 2010\VC\INCLUDE\XLOCALE
D:\IDE\MICROSOFT VISUAL STUDIO 2010\VC\INCLUDE\CSTRING
D:\IDE\MICROSOFT VISUAL STUDIO 2010\VC\INCLUDE\STRING.H
D:\IDE\MICROSOFT VISUAL STUDIO 2010\VC\INCLUDE\STDEXCEPT
D:\IDE\MICROSOFT VISUAL STUDIO 2010\VC\INCLUDE\EXCEPTION
D:\IDE\MICROSOFT VISUAL STUDIO 2010\VC\INCLUDE\XSTDDEF
D:\IDE\MICROSOFT VISUAL STUDIO 2010\VC\INCLUDE\CSTDDEF
D:\IDE\MICROSOFT VISUAL STUDIO 2010\VC\INCLUDE\EH.H
D:\IDE\MICROSOFT VISUAL STUDIO 2010\VC\INCLUDE\MALLOC.H
D:\IDE\MICROSOFT VISUAL STUDIO 2010\VC\INCLUDE\XSTRING
D:\IDE\MICROSOFT VISUAL STUDIO 2010\VC\INCLUDE\XMEMORY
D:\IDE\MICROSOFT VISUAL STUDIO 2010\VC\INCLUDE\NEW
D:\IDE\MICROSOFT VISUAL STUDIO 2010\VC\INCLUDE\XUTILITY
D:\IDE\MICROSOFT VISUAL STUDIO 2010\VC\INCLUDE\UTILITY
D:\IDE\MICROSOFT VISUAL STUDIO 2010\VC\INCLUDE\IOSFWD
D:\IDE\MICROSOFT VISUAL STUDIO 2010\VC\INCLUDE\CWCHAR
D:\IDE\MICROSOFT VISUAL STUDIO 2010\VC\INCLUDE\WCHAR.H
D:\IDE\MICROSOFT VISUAL STUDIO 2010\VC\INCLUDE\WTIME.INL
D:\IDE\MICROSOFT VISUAL STUDIO 2010\VC\INCLUDE\CRTDBG.H
D:\IDE\MICROSOFT VISUAL STUDIO 2010\VC\INCLUDE\TYPE_TRAITS
D:\IDE\MICROSOFT VISUAL STUDIO 2010\VC\INCLUDE\LIMITS
D:\IDE\MICROSOFT VISUAL STUDIO 2010\VC\INCLUDE\YMATH.H
D:\IDE\MICROSOFT VISUAL STUDIO 2010\VC\INCLUDE\CFLOAT
D:\IDE\MICROSOFT VISUAL STUDIO 2010\VC\INCLUDE\FLOAT.H
D:\IDE\MICROSOFT VISUAL STUDIO 2010\VC\INCLUDE\CRTWRN.H
D:\IDE\MICROSOFT VISUAL STUDIO 2010\VC\INCLUDE\XTR1COMMON
D:\IDE\MICROSOFT VISUAL STUDIO 2010\VC\INCLUDE\XFWRAP
D:\IDE\MICROSOFT VISUAL STUDIO 2010\VC\INCLUDE\XFWRAP1
D:\IDE\MICROSOFT VISUAL STUDIO 2010\VC\INCLUDE\XXTYPE_TRAITS
D:\IDE\MICROSOFT VISUAL STUDIO 2010\VC\INCLUDE\TYPEINFO
D:\IDE\MICROSOFT VISUAL STUDIO 2010\VC\INCLUDE\XLOCINFO
D:\IDE\MICROSOFT VISUAL STUDIO 2010\VC\INCLUDE\XLOCINFO.H
D:\IDE\MICROSOFT VISUAL STUDIO 2010\VC\INCLUDE\CTYPE.H
D:\IDE\MICROSOFT VISUAL STUDIO 2010\VC\INCLUDE\LOCALE.H
D:\IDE\MICROSOFT VISUAL STUDIO 2010\VC\INCLUDE\XDEBUG
D:\IDE\MICROSOFT VISUAL STUDIO 2010\VC\INCLUDE\SYSTEM_ERROR
D:\IDE\MICROSOFT VISUAL STUDIO 2010\VC\INCLUDE\CERRNO
D:\IDE\MICROSOFT VISUAL STUDIO 2010\VC\INCLUDE\ERRNO.H
D:\IDE\MICROSOFT VISUAL STUDIO 2010\VC\INCLUDE\SHARE.H
C:\PROGRAM FILES\MICROSOFT SDKS\WINDOWS\V7.0A\INCLUDE\WINDOWS.H
C:\PROGRAM FILES\MICROSOFT SDKS\WINDOWS\V7.0A\INCLUDE\SDKDDKVER.H
D:\IDE\MICROSOFT VISUAL STUDIO 2010\VC\INCLUDE\EXCPT.H
D:\IDE\MICROSOFT VISUAL STUDIO 2010\VC\INCLUDE\STDARG.H
C:\PROGRAM FILES\MICROSOFT SDKS\WINDOWS\V7.0A\INCLUDE\WINDEF.H
C:\PROGRAM FILES\MICROSOFT SDKS\WINDOWS\V7.0A\INCLUDE\WINNT.H
C:\PROGRAM FILES\MICROSOFT SDKS\WINDOWS\V7.0A\INCLUDE\SPECSTRINGS.H
C:\PROGRAM FILES\MICROSOFT SDKS\WINDOWS\V7.0A\INCLUDE\SAL_SUPP.H
C:\PROGRAM FILES\MICROSOFT SDKS\WINDOWS\V7.0A\INCLUDE\SPECSTRINGS_SUPP.H
C:\PROGRAM FILES\MICROSOFT SDKS\WINDOWS\V7.0A\INCLUDE\SPECSTRINGS_STRICT.H
C:\PROGRAM FILES\MICROSOFT SDKS\WINDOWS\V7.0A\INCLUDE\SPECSTRINGS_UNDEF.H
C:\PROGRAM FILES\MICROSOFT SDKS\WINDOWS\V7.0A\INCLUDE\DRIVERSPECS.H
C:\PROGRAM FILES\MICROSOFT SDKS\WINDOWS\V7.0A\INCLUDE\SDV_DRIVERSPECS.H
C:\PROGRAM FILES\MICROSOFT SDKS\WINDOWS\V7.0A\INCLUDE\KERNELSPECS.H
C:\PROGRAM FILES\MICROSOFT SDKS\WINDOWS\V7.0A\INCLUDE\BASETSD.H
C:\PROGRAM FILES\MICROSOFT SDKS\WINDOWS\V7.0A\INCLUDE\GUIDDEF.H
C:\PROGRAM FILES\MICROSOFT SDKS\WINDOWS\V7.0A\INCLUDE\PSHPACK4.H
C:\PROGRAM FILES\MICROSOFT SDKS\WINDOWS\V7.0A\INCLUDE\POPPACK.H
C:\PROGRAM FILES\MICROSOFT SDKS\WINDOWS\V7.0A\INCLUDE\PSHPACK2.H
C:\PROGRAM FILES\MICROSOFT SDKS\WINDOWS\V7.0A\INCLUDE\PSHPACK8.H
C:\PROGRAM FILES\MICROSOFT SDKS\WINDOWS\V7.0A\INCLUDE\KTMTYPES.H
C:\PROGRAM FILES\MICROSOFT SDKS\WINDOWS\V7.0A\INCLUDE\WINBASE.H
C:\PROGRAM FILES\MICROSOFT SDKS\WINDOWS\V7.0A\INCLUDE\WINERROR.H
C:\PROGRAM FILES\MICROSOFT SDKS\WINDOWS\V7.0A\INCLUDE\WINGDI.H
C:\PROGRAM FILES\MICROSOFT SDKS\WINDOWS\V7.0A\INCLUDE\PSHPACK1.H
C:\PROGRAM FILES\MICROSOFT SDKS\WINDOWS\V7.0A\INCLUDE\WINUSER.H
C:\PROGRAM FILES\MICROSOFT SDKS\WINDOWS\V7.0A\INCLUDE\TVOUT.H
C:\PROGRAM FILES\MICROSOFT SDKS\WINDOWS\V7.0A\INCLUDE\WINNLS.H
C:\PROGRAM FILES\MICROSOFT SDKS\WINDOWS\V7.0A\INCLUDE\WINCON.H
C:\PROGRAM FILES\MICROSOFT SDKS\WINDOWS\V7.0A\INCLUDE\WINVER.H
C:\PROGRAM FILES\MICROSOFT SDKS\WINDOWS\V7.0A\INCLUDE\VERRSRC.H
C:\PROGRAM FILES\MICROSOFT SDKS\WINDOWS\V7.0A\INCLUDE\WINREG.H
C:\PROGRAM FILES\MICROSOFT SDKS\WINDOWS\V7.0A\INCLUDE\REASON.H
C:\PROGRAM FILES\MICROSOFT SDKS\WINDOWS\V7.0A\INCLUDE\WINNETWK.H
C:\PROGRAM FILES\MICROSOFT SDKS\WINDOWS\V7.0A\INCLUDE\WNNC.H
C:\PROGRAM FILES\MICROSOFT SDKS\WINDOWS\V7.0A\INCLUDE\CDERR.H
C:\PROGRAM FILES\MICROSOFT SDKS\WINDOWS\V7.0A\INCLUDE\DDE.H
C:\PROGRAM FILES\MICROSOFT SDKS\WINDOWS\V7.0A\INCLUDE\DDEML.H
C:\PROGRAM FILES\MICROSOFT SDKS\WINDOWS\V7.0A\INCLUDE\DLGS.H
C:\PROGRAM FILES\MICROSOFT SDKS\WINDOWS\V7.0A\INCLUDE\LZEXPAND.H
C:\PROGRAM FILES\MICROSOFT SDKS\WINDOWS\V7.0A\INCLUDE\MMSYSTEM.H
C:\PROGRAM FILES\MICROSOFT SDKS\WINDOWS\V7.0A\INCLUDE\NB30.H
C:\PROGRAM FILES\MICROSOFT SDKS\WINDOWS\V7.0A\INCLUDE\RPC.H
C:\PROGRAM FILES\MICROSOFT SDKS\WINDOWS\V7.0A\INCLUDE\RPCDCE.H
C:\PROGRAM FILES\MICROSOFT SDKS\WINDOWS\V7.0A\INCLUDE\RPCDCEP.H
C:\PROGRAM FILES\MICROSOFT SDKS\WINDOWS\V7.0A\INCLUDE\RPCNSI.H
C:\PROGRAM FILES\MICROSOFT SDKS\WINDOWS\V7.0A\INCLUDE\RPCNTERR.H
C:\PROGRAM FILES\MICROSOFT SDKS\WINDOWS\V7.0A\INCLUDE\RPCASYNC.H
C:\PROGRAM FILES\MICROSOFT SDKS\WINDOWS\V7.0A\INCLUDE\SHELLAPI.H
C:\PROGRAM FILES\MICROSOFT SDKS\WINDOWS\V7.0A\INCLUDE\WINPERF.H
C:\PROGRAM FILES\MICROSOFT SDKS\WINDOWS\V7.0A\INCLUDE\WINSOCK.H
C:\PROGRAM FILES\MICROSOFT SDKS\WINDOWS\V7.0A\INCLUDE\INADDR.H
C:\PROGRAM FILES\MICROSOFT SDKS\WINDOWS\V7.0A\INCLUDE\WINCRYPT.H
C:\PROGRAM FILES\MICROSOFT SDKS\WINDOWS\V7.0A\INCLUDE\BCRYPT.H
C:\PROGRAM FILES\MICROSOFT SDKS\WINDOWS\V7.0A\INCLUDE\NCRYPT.H
C:\PROGRAM FILES\MICROSOFT SDKS\WINDOWS\V7.0A\INCLUDE\WINEFS.H
C:\PROGRAM FILES\MICROSOFT SDKS\WINDOWS\V7.0A\INCLUDE\WINSCARD.H
C:\PROGRAM FILES\MICROSOFT SDKS\WINDOWS\V7.0A\INCLUDE\WTYPES.H
C:\PROGRAM FILES\MICROSOFT SDKS\WINDOWS\V7.0A\INCLUDE\RPCNDR.H
C:\PROGRAM FILES\MICROSOFT SDKS\WINDOWS\V7.0A\INCLUDE\RPCNSIP.H
C:\PROGRAM FILES\MICROSOFT SDKS\WINDOWS\V7.0A\INCLUDE\RPCSAL.H
C:\PROGRAM FILES\MICROSOFT SDKS\WINDOWS\V7.0A\INCLUDE\WINIOCTL.H
C:\PROGRAM FILES\MICROSOFT SDKS\WINDOWS\V7.0A\INCLUDE\WINSMCRD.H
C:\PROGRAM FILES\MICROSOFT SDKS\WINDOWS\V7.0A\INCLUDE\WINSPOOL.H
C:\PROGRAM FILES\MICROSOFT SDKS\WINDOWS\V7.0A\INCLUDE\PRSHT.H
C:\PROGRAM FILES\MICROSOFT SDKS\WINDOWS\V7.0A\INCLUDE\OLE2.H
C:\PROGRAM FILES\MICROSOFT SDKS\WINDOWS\V7.0A\INCLUDE\OBJBASE.H
C:\PROGRAM FILES\MICROSOFT SDKS\WINDOWS\V7.0A\INCLUDE\UNKNWN.H
C:\PROGRAM FILES\MICROSOFT SDKS\WINDOWS\V7.0A\INCLUDE\OBJIDL.H
C:\PROGRAM FILES\MICROSOFT SDKS\WINDOWS\V7.0A\INCLUDE\CGUID.H
C:\PROGRAM FILES\MICROSOFT SDKS\WINDOWS\V7.0A\INCLUDE\URLMON.H
C:\PROGRAM FILES\MICROSOFT SDKS\WINDOWS\V7.0A\INCLUDE\OLEIDL.H
C:\PROGRAM FILES\MICROSOFT SDKS\WINDOWS\V7.0A\INCLUDE\SERVPROV.H
C:\PROGRAM FILES\MICROSOFT SDKS\WINDOWS\V7.0A\INCLUDE\MSXML.H
C:\PROGRAM FILES\MICROSOFT SDKS\WINDOWS\V7.0A\INCLUDE\OAIDL.H
C:\PROGRAM FILES\MICROSOFT SDKS\WINDOWS\V7.0A\INCLUDE\PROPIDL.H
C:\PROGRAM FILES\MICROSOFT SDKS\WINDOWS\V7.0A\INCLUDE\OLEAUTO.H
C:\PROGRAM FILES\MICROSOFT SDKS\WINDOWS\V7.0A\INCLUDE\COMMDLG.H
C:\PROGRAM FILES\MICROSOFT SDKS\WINDOWS\V7.0A\INCLUDE\STRALIGN.H
C:\PROGRAM FILES\MICROSOFT SDKS\WINDOWS\V7.0A\INCLUDE\WINSVC.H
C:\PROGRAM FILES\MICROSOFT SDKS\WINDOWS\V7.0A\INCLUDE\MCX.H
C:\PROGRAM FILES\MICROSOFT SDKS\WINDOWS\V7.0A\INCLUDE\IMM.H
C:\PROGRAM FILES\MICROSOFT SDKS\WINDOWS\V7.0A\INCLUDE\IME_CMODES.H
C:\PROGRAM FILES\REFERENCE ASSEMBLIES\MICROSOFT\FRAMEWORK\.NETFRAMEWORK\V4.0\MICROSOFT.VISUALC.DLL
^E:\VISUAL STUDIO FILES\TIMELIMIT\TIMELIMIT\TIMELIMIT.CPP
E:\VISUAL STUDIO FILES\TIMELIMIT\TIMELIMIT\RELEASE\TIMELIMIT.PCH
D:\IDE\MICROSOFT VISUAL STUDIO 2010\VC\BIN\CL.EXE.CONFIG
C:\PROGRAM FILES\REFERENCE ASSEMBLIES\MICROSOFT\FRAMEWORK\.NETFRAMEWORK\V4.0\MSCORLIB.DLL
C:\PROGRAM FILES\REFERENCE ASSEMBLIES\MICROSOFT\FRAMEWORK\.NETFRAMEWORK\V4.0\SYSTEM.CORE.DLL
C:\PROGRAM FILES\REFERENCE ASSEMBLIES\MICROSOFT\FRAMEWORK\.NETFRAMEWORK\V4.0\SYSTEM.DATA.DLL
C:\PROGRAM FILES\REFERENCE ASSEMBLIES\MICROSOFT\FRAMEWORK\.NETFRAMEWORK\V4.0\SYSTEM.DLL
C:\PROGRAM FILES\REFERENCE ASSEMBLIES\MICROSOFT\FRAMEWORK\.NETFRAMEWORK\V4.0\SYSTEM.DRAWING.DLL
C:\PROGRAM FILES\REFERENCE ASSEMBLIES\MICROSOFT\FRAMEWORK\.NETFRAMEWORK\V4.0\SYSTEM.WINDOWS.FORMS.DLL
C:\PROGRAM FILES\REFERENCE ASSEMBLIES\MICROSOFT\FRAMEWORK\.NETFRAMEWORK\V4.0\SYSTEM.XML.DLL
E:\VISUAL STUDIO FILES\TIMELIMIT\TIMELIMIT\RELEASE\STDAFX.OBJ
E:\VISUAL STUDIO FILES\TIMELIMIT\TIMELIMIT\FORM1.H
D:\IDE\MICROSOFT VISUAL STUDIO 2010\VC\INCLUDE\FSTREAM
D:\IDE\MICROSOFT VISUAL STUDIO 2010\VC\INCLUDE\ISTREAM
D:\IDE\MICROSOFT VISUAL STUDIO 2010\VC\INCLUDE\OSTREAM
D:\IDE\MICROSOFT VISUAL STUDIO 2010\VC\INCLUDE\IOS
D:\IDE\MICROSOFT VISUAL STUDIO 2010\VC\INCLUDE\XLOCNUM
D:\IDE\MICROSOFT VISUAL STUDIO 2010\VC\INCLUDE\CLIMITS
D:\IDE\MICROSOFT VISUAL STUDIO 2010\VC\INCLUDE\YVALS.H
D:\IDE\MICROSOFT VISUAL STUDIO 2010\VC\INCLUDE\CRTDEFS.H
D:\IDE\MICROSOFT VISUAL STUDIO 2010\VC\INCLUDE\SAL.H
D:\IDE\MICROSOFT VISUAL STUDIO 2010\VC\INCLUDE\CODEANALYSIS\SOURCEANNOTATIONS.H
D:\IDE\MICROSOFT VISUAL STUDIO 2010\VC\INCLUDE\VADEFS.H
D:\IDE\MICROSOFT VISUAL STUDIO 2010\VC\INCLUDE\USE_ANSI.H
D:\IDE\MICROSOFT VISUAL STUDIO 2010\VC\INCLUDE\LIMITS.H
D:\IDE\MICROSOFT VISUAL STUDIO 2010\VC\INCLUDE\CMATH
D:\IDE\MICROSOFT VISUAL STUDIO 2010\VC\INCLUDE\MATH.H
D:\IDE\MICROSOFT VISUAL STUDIO 2010\VC\INCLUDE\CSTDIO
D:\IDE\MICROSOFT VISUAL STUDIO 2010\VC\INCLUDE\STDIO.H
D:\IDE\MICROSOFT VISUAL STUDIO 2010\VC\INCLUDE\SWPRINTF.INL
D:\IDE\MICROSOFT VISUAL STUDIO 2010\VC\INCLUDE\CSTDLIB
D:\IDE\MICROSOFT VISUAL STUDIO 2010\VC\INCLUDE\STDLIB.H
D:\IDE\MICROSOFT VISUAL STUDIO 2010\VC\INCLUDE\STREAMBUF
D:\IDE\MICROSOFT VISUAL STUDIO 2010\VC\INCLUDE\XIOSBASE
D:\IDE\MICROSOFT VISUAL STUDIO 2010\VC\INCLUDE\XLOCALE
D:\IDE\MICROSOFT VISUAL STUDIO 2010\VC\INCLUDE\CSTRING
D:\IDE\MICROSOFT VISUAL STUDIO 2010\VC\INCLUDE\STRING.H
D:\IDE\MICROSOFT VISUAL STUDIO 2010\VC\INCLUDE\STDEXCEPT
D:\IDE\MICROSOFT VISUAL STUDIO 2010\VC\INCLUDE\EXCEPTION
D:\IDE\MICROSOFT VISUAL STUDIO 2010\VC\INCLUDE\XSTDDEF
D:\IDE\MICROSOFT VISUAL STUDIO 2010\VC\INCLUDE\CSTDDEF
D:\IDE\MICROSOFT VISUAL STUDIO 2010\VC\INCLUDE\STDDEF.H
D:\IDE\MICROSOFT VISUAL STUDIO 2010\VC\INCLUDE\EH.H
D:\IDE\MICROSOFT VISUAL STUDIO 2010\VC\INCLUDE\MALLOC.H
D:\IDE\MICROSOFT VISUAL STUDIO 2010\VC\INCLUDE\XSTRING
D:\IDE\MICROSOFT VISUAL STUDIO 2010\VC\INCLUDE\XMEMORY
D:\IDE\MICROSOFT VISUAL STUDIO 2010\VC\INCLUDE\NEW
D:\IDE\MICROSOFT VISUAL STUDIO 2010\VC\INCLUDE\XUTILITY
D:\IDE\MICROSOFT VISUAL STUDIO 2010\VC\INCLUDE\UTILITY
D:\IDE\MICROSOFT VISUAL STUDIO 2010\VC\INCLUDE\IOSFWD
D:\IDE\MICROSOFT VISUAL STUDIO 2010\VC\INCLUDE\CWCHAR
D:\IDE\MICROSOFT VISUAL STUDIO 2010\VC\INCLUDE\WCHAR.H
D:\IDE\MICROSOFT VISUAL STUDIO 2010\VC\INCLUDE\WTIME.INL
D:\IDE\MICROSOFT VISUAL STUDIO 2010\VC\INCLUDE\CRTDBG.H
D:\IDE\MICROSOFT VISUAL STUDIO 2010\VC\INCLUDE\TYPE_TRAITS
D:\IDE\MICROSOFT VISUAL STUDIO 2010\VC\INCLUDE\LIMITS
D:\IDE\MICROSOFT VISUAL STUDIO 2010\VC\INCLUDE\YMATH.H
D:\IDE\MICROSOFT VISUAL STUDIO 2010\VC\INCLUDE\CFLOAT
D:\IDE\MICROSOFT VISUAL STUDIO 2010\VC\INCLUDE\FLOAT.H
D:\IDE\MICROSOFT VISUAL STUDIO 2010\VC\INCLUDE\CRTWRN.H
D:\IDE\MICROSOFT VISUAL STUDIO 2010\VC\INCLUDE\XTR1COMMON
D:\IDE\MICROSOFT VISUAL STUDIO 2010\VC\INCLUDE\XFWRAP
D:\IDE\MICROSOFT VISUAL STUDIO 2010\VC\INCLUDE\XFWRAP1
D:\IDE\MICROSOFT VISUAL STUDIO 2010\VC\INCLUDE\XXTYPE_TRAITS
D:\IDE\MICROSOFT VISUAL STUDIO 2010\VC\INCLUDE\TYPEINFO
D:\IDE\MICROSOFT VISUAL STUDIO 2010\VC\INCLUDE\XLOCINFO
D:\IDE\MICROSOFT VISUAL STUDIO 2010\VC\INCLUDE\XLOCINFO.H
D:\IDE\MICROSOFT VISUAL STUDIO 2010\VC\INCLUDE\CTYPE.H
D:\IDE\MICROSOFT VISUAL STUDIO 2010\VC\INCLUDE\LOCALE.H
D:\IDE\MICROSOFT VISUAL STUDIO 2010\VC\INCLUDE\XDEBUG
D:\IDE\MICROSOFT VISUAL STUDIO 2010\VC\INCLUDE\SYSTEM_ERROR
D:\IDE\MICROSOFT VISUAL STUDIO 2010\VC\INCLUDE\CERRNO
D:\IDE\MICROSOFT VISUAL STUDIO 2010\VC\INCLUDE\ERRNO.H
D:\IDE\MICROSOFT VISUAL STUDIO 2010\VC\INCLUDE\SHARE.H
D:\IDE\MICROSOFT VISUAL STUDIO 2010\VC\INCLUDE\VECTOR
D:\IDE\MICROSOFT VISUAL STUDIO 2010\VC\INCLUDE\MEMORY
D:\IDE\MICROSOFT VISUAL STUDIO 2010\VC\INCLUDE\INTRIN.H
D:\IDE\MICROSOFT VISUAL STUDIO 2010\VC\INCLUDE\SETJMP.H
D:\IDE\MICROSOFT VISUAL STUDIO 2010\VC\INCLUDE\SETJMPEX.H
D:\IDE\MICROSOFT VISUAL STUDIO 2010\VC\INCLUDE\XXSHARED
D:\IDE\MICROSOFT VISUAL STUDIO 2010\VC\INCLUDE\XFUNCTIONAL
D:\IDE\MICROSOFT VISUAL STUDIO 2010\VC\INCLUDE\STRING
D:\IDE\MICROSOFT VISUAL STUDIO 2010\VC\INCLUDE\STRSTREAM
D:\IDE\MICROSOFT VISUAL STUDIO 2010\VC\INCLUDE\ALGORITHM
E:\VISUAL STUDIO FILES\TIMELIMIT\TIMELIMIT\STRCONVERT.H
D:\IDE\MICROSOFT VISUAL STUDIO 2010\VC\INCLUDE\VCCLR.H
D:\IDE\MICROSOFT VISUAL STUDIO 2010\VC\INCLUDE\GCROOT.H
D:\IDE\MICROSOFT VISUAL STUDIO 2010\VC\INCLUDE\MSCLR\GCROOT.H
C:\PROGRAM FILES\MICROSOFT SDKS\WINDOWS\V7.0A\INCLUDE\WINDOWS.H
C:\PROGRAM FILES\MICROSOFT SDKS\WINDOWS\V7.0A\INCLUDE\SDKDDKVER.H
D:\IDE\MICROSOFT VISUAL STUDIO 2010\VC\INCLUDE\EXCPT.H
D:\IDE\MICROSOFT VISUAL STUDIO 2010\VC\INCLUDE\STDARG.H
C:\PROGRAM FILES\MICROSOFT SDKS\WINDOWS\V7.0A\INCLUDE\WINDEF.H
C:\PROGRAM FILES\MICROSOFT SDKS\WINDOWS\V7.0A\INCLUDE\WINNT.H
C:\PROGRAM FILES\MICROSOFT SDKS\WINDOWS\V7.0A\INCLUDE\SPECSTRINGS.H
C:\PROGRAM FILES\MICROSOFT SDKS\WINDOWS\V7.0A\INCLUDE\SAL_SUPP.H
C:\PROGRAM FILES\MICROSOFT SDKS\WINDOWS\V7.0A\INCLUDE\SPECSTRINGS_SUPP.H
C:\PROGRAM FILES\MICROSOFT SDKS\WINDOWS\V7.0A\INCLUDE\SPECSTRINGS_STRICT.H
C:\PROGRAM FILES\MICROSOFT SDKS\WINDOWS\V7.0A\INCLUDE\SPECSTRINGS_UNDEF.H
C:\PROGRAM FILES\MICROSOFT SDKS\WINDOWS\V7.0A\INCLUDE\DRIVERSPECS.H
C:\PROGRAM FILES\MICROSOFT SDKS\WINDOWS\V7.0A\INCLUDE\SDV_DRIVERSPECS.H
C:\PROGRAM FILES\MICROSOFT SDKS\WINDOWS\V7.0A\INCLUDE\KERNELSPECS.H
C:\PROGRAM FILES\MICROSOFT SDKS\WINDOWS\V7.0A\INCLUDE\BASETSD.H
C:\PROGRAM FILES\MICROSOFT SDKS\WINDOWS\V7.0A\INCLUDE\GUIDDEF.H
C:\PROGRAM FILES\MICROSOFT SDKS\WINDOWS\V7.0A\INCLUDE\PSHPACK4.H
C:\PROGRAM FILES\MICROSOFT SDKS\WINDOWS\V7.0A\INCLUDE\POPPACK.H
C:\PROGRAM FILES\MICROSOFT SDKS\WINDOWS\V7.0A\INCLUDE\PSHPACK2.H
C:\PROGRAM FILES\MICROSOFT SDKS\WINDOWS\V7.0A\INCLUDE\PSHPACK8.H
C:\PROGRAM FILES\MICROSOFT SDKS\WINDOWS\V7.0A\INCLUDE\KTMTYPES.H
C:\PROGRAM FILES\MICROSOFT SDKS\WINDOWS\V7.0A\INCLUDE\WINBASE.H
C:\PROGRAM FILES\MICROSOFT SDKS\WINDOWS\V7.0A\INCLUDE\WINERROR.H
C:\PROGRAM FILES\MICROSOFT SDKS\WINDOWS\V7.0A\INCLUDE\WINGDI.H
C:\PROGRAM FILES\MICROSOFT SDKS\WINDOWS\V7.0A\INCLUDE\PSHPACK1.H
C:\PROGRAM FILES\MICROSOFT SDKS\WINDOWS\V7.0A\INCLUDE\WINUSER.H
C:\PROGRAM FILES\MICROSOFT SDKS\WINDOWS\V7.0A\INCLUDE\TVOUT.H
C:\PROGRAM FILES\MICROSOFT SDKS\WINDOWS\V7.0A\INCLUDE\WINNLS.H
C:\PROGRAM FILES\MICROSOFT SDKS\WINDOWS\V7.0A\INCLUDE\WINCON.H
C:\PROGRAM FILES\MICROSOFT SDKS\WINDOWS\V7.0A\INCLUDE\WINVER.H
C:\PROGRAM FILES\MICROSOFT SDKS\WINDOWS\V7.0A\INCLUDE\VERRSRC.H
C:\PROGRAM FILES\MICROSOFT SDKS\WINDOWS\V7.0A\INCLUDE\WINREG.H
C:\PROGRAM FILES\MICROSOFT SDKS\WINDOWS\V7.0A\INCLUDE\REASON.H
C:\PROGRAM FILES\MICROSOFT SDKS\WINDOWS\V7.0A\INCLUDE\WINNETWK.H
C:\PROGRAM FILES\MICROSOFT SDKS\WINDOWS\V7.0A\INCLUDE\WNNC.H
C:\PROGRAM FILES\MICROSOFT SDKS\WINDOWS\V7.0A\INCLUDE\CDERR.H
C:\PROGRAM FILES\MICROSOFT SDKS\WINDOWS\V7.0A\INCLUDE\DDE.H
C:\PROGRAM FILES\MICROSOFT SDKS\WINDOWS\V7.0A\INCLUDE\DDEML.H
C:\PROGRAM FILES\MICROSOFT SDKS\WINDOWS\V7.0A\INCLUDE\DLGS.H
C:\PROGRAM FILES\MICROSOFT SDKS\WINDOWS\V7.0A\INCLUDE\LZEXPAND.H
C:\PROGRAM FILES\MICROSOFT SDKS\WINDOWS\V7.0A\INCLUDE\MMSYSTEM.H
C:\PROGRAM FILES\MICROSOFT SDKS\WINDOWS\V7.0A\INCLUDE\NB30.H
C:\PROGRAM FILES\MICROSOFT SDKS\WINDOWS\V7.0A\INCLUDE\RPC.H
C:\PROGRAM FILES\MICROSOFT SDKS\WINDOWS\V7.0A\INCLUDE\RPCDCE.H
C:\PROGRAM FILES\MICROSOFT SDKS\WINDOWS\V7.0A\INCLUDE\RPCDCEP.H
C:\PROGRAM FILES\MICROSOFT SDKS\WINDOWS\V7.0A\INCLUDE\RPCNSI.H
C:\PROGRAM FILES\MICROSOFT SDKS\WINDOWS\V7.0A\INCLUDE\RPCNTERR.H
C:\PROGRAM FILES\MICROSOFT SDKS\WINDOWS\V7.0A\INCLUDE\RPCASYNC.H
C:\PROGRAM FILES\MICROSOFT SDKS\WINDOWS\V7.0A\INCLUDE\SHELLAPI.H
C:\PROGRAM FILES\MICROSOFT SDKS\WINDOWS\V7.0A\INCLUDE\WINPERF.H
C:\PROGRAM FILES\MICROSOFT SDKS\WINDOWS\V7.0A\INCLUDE\WINSOCK.H
C:\PROGRAM FILES\MICROSOFT SDKS\WINDOWS\V7.0A\INCLUDE\INADDR.H
C:\PROGRAM FILES\MICROSOFT SDKS\WINDOWS\V7.0A\INCLUDE\WINCRYPT.H
C:\PROGRAM FILES\MICROSOFT SDKS\WINDOWS\V7.0A\INCLUDE\BCRYPT.H
C:\PROGRAM FILES\MICROSOFT SDKS\WINDOWS\V7.0A\INCLUDE\NCRYPT.H
C:\PROGRAM FILES\MICROSOFT SDKS\WINDOWS\V7.0A\INCLUDE\WINEFS.H
C:\PROGRAM FILES\MICROSOFT SDKS\WINDOWS\V7.0A\INCLUDE\WINSCARD.H
C:\PROGRAM FILES\MICROSOFT SDKS\WINDOWS\V7.0A\INCLUDE\WTYPES.H
C:\PROGRAM FILES\MICROSOFT SDKS\WINDOWS\V7.0A\INCLUDE\RPCNDR.H
C:\PROGRAM FILES\MICROSOFT SDKS\WINDOWS\V7.0A\INCLUDE\RPCNSIP.H
C:\PROGRAM FILES\MICROSOFT SDKS\WINDOWS\V7.0A\INCLUDE\RPCSAL.H
C:\PROGRAM FILES\MICROSOFT SDKS\WINDOWS\V7.0A\INCLUDE\WINIOCTL.H
C:\PROGRAM FILES\MICROSOFT SDKS\WINDOWS\V7.0A\INCLUDE\WINSMCRD.H
C:\PROGRAM FILES\MICROSOFT SDKS\WINDOWS\V7.0A\INCLUDE\WINSPOOL.H
C:\PROGRAM FILES\MICROSOFT SDKS\WINDOWS\V7.0A\INCLUDE\PRSHT.H
C:\PROGRAM FILES\MICROSOFT SDKS\WINDOWS\V7.0A\INCLUDE\OLE2.H
C:\PROGRAM FILES\MICROSOFT SDKS\WINDOWS\V7.0A\INCLUDE\OBJBASE.H
C:\PROGRAM FILES\MICROSOFT SDKS\WINDOWS\V7.0A\INCLUDE\UNKNWN.H
C:\PROGRAM FILES\MICROSOFT SDKS\WINDOWS\V7.0A\INCLUDE\OBJIDL.H
C:\PROGRAM FILES\MICROSOFT SDKS\WINDOWS\V7.0A\INCLUDE\CGUID.H
C:\PROGRAM FILES\MICROSOFT SDKS\WINDOWS\V7.0A\INCLUDE\URLMON.H
C:\PROGRAM FILES\MICROSOFT SDKS\WINDOWS\V7.0A\INCLUDE\OLEIDL.H
C:\PROGRAM FILES\MICROSOFT SDKS\WINDOWS\V7.0A\INCLUDE\SERVPROV.H
C:\PROGRAM FILES\MICROSOFT SDKS\WINDOWS\V7.0A\INCLUDE\MSXML.H
C:\PROGRAM FILES\MICROSOFT SDKS\WINDOWS\V7.0A\INCLUDE\OAIDL.H
C:\PROGRAM FILES\MICROSOFT SDKS\WINDOWS\V7.0A\INCLUDE\PROPIDL.H
C:\PROGRAM FILES\MICROSOFT SDKS\WINDOWS\V7.0A\INCLUDE\OLEAUTO.H
C:\PROGRAM FILES\MICROSOFT SDKS\WINDOWS\V7.0A\INCLUDE\COMMDLG.H
C:\PROGRAM FILES\MICROSOFT SDKS\WINDOWS\V7.0A\INCLUDE\STRALIGN.H
C:\PROGRAM FILES\MICROSOFT SDKS\WINDOWS\V7.0A\INCLUDE\WINSVC.H
C:\PROGRAM FILES\MICROSOFT SDKS\WINDOWS\V7.0A\INCLUDE\MCX.H
C:\PROGRAM FILES\MICROSOFT SDKS\WINDOWS\V7.0A\INCLUDE\IMM.H
C:\PROGRAM FILES\MICROSOFT SDKS\WINDOWS\V7.0A\INCLUDE\IME_CMODES.H
C:\PROGRAM FILES\REFERENCE ASSEMBLIES\MICROSOFT\FRAMEWORK\.NETFRAMEWORK\V4.0\MICROSOFT.VISUALC.DLL
^E:\MYPROGRAMS\TIMELIMIT\TIMELIMIT\STDAFX.CPP
D:\IDE\MICROSOFT VISUAL STUDIO 2010\VC\BIN\1033\CLUI.DLL
C:\WINDOWS\GLOBALIZATION\SORTING\SORTDEFAULT.NLS
C:\WINDOWS\SYSTEM32\RSAENH.DLL
C:\WINDOWS\MICROSOFT.NET\FRAMEWORK\V2.0.50727\MSCORWKS.DLL
C:\WINDOWS\MICROSOFT.NET\FRAMEWORK\V4.0.30319\CLR.DLL
D:\IDE\MICROSOFT VISUAL STUDIO 2010\VC\BIN\CL.EXE.CONFIG
C:\WINDOWS\SYSTEM32\TZRES.DLL
D:\IDE\MICROSOFT VISUAL STUDIO 2010\COMMON7\IDE\MSPDBSRV.EXE
C:\PROGRAM FILES (X86)\REFERENCE ASSEMBLIES\MICROSOFT\FRAMEWORK\.NETFRAMEWORK\V4.0\MSCORLIB.DLL
C:\PROGRAM FILES (X86)\REFERENCE ASSEMBLIES\MICROSOFT\FRAMEWORK\.NETFRAMEWORK\V4.0\SYSTEM.CORE.DLL
C:\PROGRAM FILES (X86)\REFERENCE ASSEMBLIES\MICROSOFT\FRAMEWORK\.NETFRAMEWORK\V4.0\SYSTEM.DATA.DLL
C:\PROGRAM FILES (X86)\REFERENCE ASSEMBLIES\MICROSOFT\FRAMEWORK\.NETFRAMEWORK\V4.0\SYSTEM.DLL
C:\PROGRAM FILES (X86)\REFERENCE ASSEMBLIES\MICROSOFT\FRAMEWORK\.NETFRAMEWORK\V4.0\SYSTEM.DRAWING.DLL
C:\PROGRAM FILES (X86)\REFERENCE ASSEMBLIES\MICROSOFT\FRAMEWORK\.NETFRAMEWORK\V4.0\SYSTEM.WINDOWS.FORMS.DLL
C:\PROGRAM FILES (X86)\REFERENCE ASSEMBLIES\MICROSOFT\FRAMEWORK\.NETFRAMEWORK\V4.0\SYSTEM.XML.DLL
E:\MYPROGRAMS\TIMELIMIT\TIMELIMIT\STDAFX.H
C:\PROGRAM FILES (X86)\REFERENCE ASSEMBLIES\MICROSOFT\FRAMEWORK\.NETFRAMEWORK\V4.0\MICROSOFT.VISUALC.DLL
^E:\MYPROGRAMS\TIMELIMIT\TIMELIMIT\ASSEMBLYINFO.CPP
E:\MYPROGRAMS\TIMELIMIT\TIMELIMIT\RELEASE\TIMELIMIT.PCH
D:\IDE\MICROSOFT VISUAL STUDIO 2010\VC\BIN\CL.EXE.CONFIG
C:\PROGRAM FILES (X86)\REFERENCE ASSEMBLIES\MICROSOFT\FRAMEWORK\.NETFRAMEWORK\V4.0\MSCORLIB.DLL
C:\PROGRAM FILES (X86)\REFERENCE ASSEMBLIES\MICROSOFT\FRAMEWORK\.NETFRAMEWORK\V4.0\SYSTEM.CORE.DLL
C:\PROGRAM FILES (X86)\REFERENCE ASSEMBLIES\MICROSOFT\FRAMEWORK\.NETFRAMEWORK\V4.0\SYSTEM.DATA.DLL
C:\PROGRAM FILES (X86)\REFERENCE ASSEMBLIES\MICROSOFT\FRAMEWORK\.NETFRAMEWORK\V4.0\SYSTEM.DLL
C:\PROGRAM FILES (X86)\REFERENCE ASSEMBLIES\MICROSOFT\FRAMEWORK\.NETFRAMEWORK\V4.0\SYSTEM.DRAWING.DLL
C:\PROGRAM FILES (X86)\REFERENCE ASSEMBLIES\MICROSOFT\FRAMEWORK\.NETFRAMEWORK\V4.0\SYSTEM.WINDOWS.FORMS.DLL
C:\PROGRAM FILES (X86)\REFERENCE ASSEMBLIES\MICROSOFT\FRAMEWORK\.NETFRAMEWORK\V4.0\SYSTEM.XML.DLL
E:\MYPROGRAMS\TIMELIMIT\TIMELIMIT\RELEASE\STDAFX.OBJ
C:\PROGRAM FILES (X86)\REFERENCE ASSEMBLIES\MICROSOFT\FRAMEWORK\.NETFRAMEWORK\V4.0\MICROSOFT.VISUALC.DLL
^E:\MYPROGRAMS\TIMELIMIT\TIMELIMIT\CHANGE1.CPP
E:\MYPROGRAMS\TIMELIMIT\TIMELIMIT\RELEASE\TIMELIMIT.PCH
D:\IDE\MICROSOFT VISUAL STUDIO 2010\VC\BIN\CL.EXE.CONFIG
C:\PROGRAM FILES (X86)\REFERENCE ASSEMBLIES\MICROSOFT\FRAMEWORK\.NETFRAMEWORK\V4.0\MSCORLIB.DLL
C:\PROGRAM FILES (X86)\REFERENCE ASSEMBLIES\MICROSOFT\FRAMEWORK\.NETFRAMEWORK\V4.0\SYSTEM.CORE.DLL
C:\PROGRAM FILES (X86)\REFERENCE ASSEMBLIES\MICROSOFT\FRAMEWORK\.NETFRAMEWORK\V4.0\SYSTEM.DATA.DLL
C:\PROGRAM FILES (X86)\REFERENCE ASSEMBLIES\MICROSOFT\FRAMEWORK\.NETFRAMEWORK\V4.0\SYSTEM.DLL
C:\PROGRAM FILES (X86)\REFERENCE ASSEMBLIES\MICROSOFT\FRAMEWORK\.NETFRAMEWORK\V4.0\SYSTEM.DRAWING.DLL
C:\PROGRAM FILES (X86)\REFERENCE ASSEMBLIES\MICROSOFT\FRAMEWORK\.NETFRAMEWORK\V4.0\SYSTEM.WINDOWS.FORMS.DLL
C:\PROGRAM FILES (X86)\REFERENCE ASSEMBLIES\MICROSOFT\FRAMEWORK\.NETFRAMEWORK\V4.0\SYSTEM.XML.DLL
E:\MYPROGRAMS\TIMELIMIT\TIMELIMIT\RELEASE\STDAFX.OBJ
E:\MYPROGRAMS\TIMELIMIT\TIMELIMIT\CHANGE1.H
D:\IDE\MICROSOFT VISUAL STUDIO 2010\VC\INCLUDE\VECTOR
D:\IDE\MICROSOFT VISUAL STUDIO 2010\VC\INCLUDE\MEMORY
D:\IDE\MICROSOFT VISUAL STUDIO 2010\VC\INCLUDE\XMEMORY
D:\IDE\MICROSOFT VISUAL STUDIO 2010\VC\INCLUDE\CSTDLIB
D:\IDE\MICROSOFT VISUAL STUDIO 2010\VC\INCLUDE\YVALS.H
D:\IDE\MICROSOFT VISUAL STUDIO 2010\VC\INCLUDE\CRTDEFS.H
D:\IDE\MICROSOFT VISUAL STUDIO 2010\VC\INCLUDE\SAL.H
D:\IDE\MICROSOFT VISUAL STUDIO 2010\VC\INCLUDE\CODEANALYSIS\SOURCEANNOTATIONS.H
D:\IDE\MICROSOFT VISUAL STUDIO 2010\VC\INCLUDE\VADEFS.H
D:\IDE\MICROSOFT VISUAL STUDIO 2010\VC\INCLUDE\USE_ANSI.H
D:\IDE\MICROSOFT VISUAL STUDIO 2010\VC\INCLUDE\STDLIB.H
D:\IDE\MICROSOFT VISUAL STUDIO 2010\VC\INCLUDE\LIMITS.H
D:\IDE\MICROSOFT VISUAL STUDIO 2010\VC\INCLUDE\NEW
D:\IDE\MICROSOFT VISUAL STUDIO 2010\VC\INCLUDE\EXCEPTION
D:\IDE\MICROSOFT VISUAL STUDIO 2010\VC\INCLUDE\XSTDDEF
D:\IDE\MICROSOFT VISUAL STUDIO 2010\VC\INCLUDE\CSTDDEF
D:\IDE\MICROSOFT VISUAL STUDIO 2010\VC\INCLUDE\STDDEF.H
D:\IDE\MICROSOFT VISUAL STUDIO 2010\VC\INCLUDE\EH.H
D:\IDE\MICROSOFT VISUAL STUDIO 2010\VC\INCLUDE\MALLOC.H
D:\IDE\MICROSOFT VISUAL STUDIO 2010\VC\INCLUDE\STRING.H
D:\IDE\MICROSOFT VISUAL STUDIO 2010\VC\INCLUDE\XUTILITY
D:\IDE\MICROSOFT VISUAL STUDIO 2010\VC\INCLUDE\CLIMITS
D:\IDE\MICROSOFT VISUAL STUDIO 2010\VC\INCLUDE\UTILITY
D:\IDE\MICROSOFT VISUAL STUDIO 2010\VC\INCLUDE\IOSFWD
D:\IDE\MICROSOFT VISUAL STUDIO 2010\VC\INCLUDE\CSTDIO
D:\IDE\MICROSOFT VISUAL STUDIO 2010\VC\INCLUDE\STDIO.H
D:\IDE\MICROSOFT VISUAL STUDIO 2010\VC\INCLUDE\SWPRINTF.INL
D:\IDE\MICROSOFT VISUAL STUDIO 2010\VC\INCLUDE\CSTRING
D:\IDE\MICROSOFT VISUAL STUDIO 2010\VC\INCLUDE\CWCHAR
D:\IDE\MICROSOFT VISUAL STUDIO 2010\VC\INCLUDE\WCHAR.H
D:\IDE\MICROSOFT VISUAL STUDIO 2010\VC\INCLUDE\WTIME.INL
D:\IDE\MICROSOFT VISUAL STUDIO 2010\VC\INCLUDE\CRTDBG.H
D:\IDE\MICROSOFT VISUAL STUDIO 2010\VC\INCLUDE\TYPE_TRAITS
D:\IDE\MICROSOFT VISUAL STUDIO 2010\VC\INCLUDE\LIMITS
D:\IDE\MICROSOFT VISUAL STUDIO 2010\VC\INCLUDE\YMATH.H
D:\IDE\MICROSOFT VISUAL STUDIO 2010\VC\INCLUDE\CFLOAT
D:\IDE\MICROSOFT VISUAL STUDIO 2010\VC\INCLUDE\FLOAT.H
D:\IDE\MICROSOFT VISUAL STUDIO 2010\VC\INCLUDE\CRTWRN.H
D:\IDE\MICROSOFT VISUAL STUDIO 2010\VC\INCLUDE\CMATH
D:\IDE\MICROSOFT VISUAL STUDIO 2010\VC\INCLUDE\MATH.H
D:\IDE\MICROSOFT VISUAL STUDIO 2010\VC\INCLUDE\XTR1COMMON
D:\IDE\MICROSOFT VISUAL STUDIO 2010\VC\INCLUDE\XFWRAP
D:\IDE\MICROSOFT VISUAL STUDIO 2010\VC\INCLUDE\XFWRAP1
D:\IDE\MICROSOFT VISUAL STUDIO 2010\VC\INCLUDE\XXTYPE_TRAITS
D:\IDE\MICROSOFT VISUAL STUDIO 2010\VC\INCLUDE\TYPEINFO
D:\IDE\MICROSOFT VISUAL STUDIO 2010\VC\INCLUDE\INTRIN.H
D:\IDE\MICROSOFT VISUAL STUDIO 2010\VC\INCLUDE\SETJMP.H
D:\IDE\MICROSOFT VISUAL STUDIO 2010\VC\INCLUDE\SETJMPEX.H
D:\IDE\MICROSOFT VISUAL STUDIO 2010\VC\INCLUDE\XXSHARED
D:\IDE\MICROSOFT VISUAL STUDIO 2010\VC\INCLUDE\STDEXCEPT
D:\IDE\MICROSOFT VISUAL STUDIO 2010\VC\INCLUDE\XSTRING
D:\IDE\MICROSOFT VISUAL STUDIO 2010\VC\INCLUDE\XFUNCTIONAL
E:\MYPROGRAMS\TIMELIMIT\TIMELIMIT\TYPE.H
C:\PROGRAM FILES (X86)\REFERENCE ASSEMBLIES\MICROSOFT\FRAMEWORK\.NETFRAMEWORK\V4.0\MICROSOFT.VISUALC.DLL
^E:\MYPROGRAMS\TIMELIMIT\TIMELIMIT\FORM1.CPP
E:\MYPROGRAMS\TIMELIMIT\TIMELIMIT\RELEASE\TIMELIMIT.PCH
D:\IDE\MICROSOFT VISUAL STUDIO 2010\VC\BIN\CL.EXE.CONFIG
C:\PROGRAM FILES (X86)\REFERENCE ASSEMBLIES\MICROSOFT\FRAMEWORK\.NETFRAMEWORK\V4.0\MSCORLIB.DLL
C:\PROGRAM FILES (X86)\REFERENCE ASSEMBLIES\MICROSOFT\FRAMEWORK\.NETFRAMEWORK\V4.0\SYSTEM.CORE.DLL
C:\PROGRAM FILES (X86)\REFERENCE ASSEMBLIES\MICROSOFT\FRAMEWORK\.NETFRAMEWORK\V4.0\SYSTEM.DATA.DLL
C:\PROGRAM FILES (X86)\REFERENCE ASSEMBLIES\MICROSOFT\FRAMEWORK\.NETFRAMEWORK\V4.0\SYSTEM.DLL
C:\PROGRAM FILES (X86)\REFERENCE ASSEMBLIES\MICROSOFT\FRAMEWORK\.NETFRAMEWORK\V4.0\SYSTEM.DRAWING.DLL
C:\PROGRAM FILES (X86)\REFERENCE ASSEMBLIES\MICROSOFT\FRAMEWORK\.NETFRAMEWORK\V4.0\SYSTEM.WINDOWS.FORMS.DLL
C:\PROGRAM FILES (X86)\REFERENCE ASSEMBLIES\MICROSOFT\FRAMEWORK\.NETFRAMEWORK\V4.0\SYSTEM.XML.DLL
E:\MYPROGRAMS\TIMELIMIT\TIMELIMIT\RELEASE\STDAFX.OBJ
E:\MYPROGRAMS\TIMELIMIT\TIMELIMIT\FORM1.H
D:\IDE\MICROSOFT VISUAL STUDIO 2010\VC\INCLUDE\FSTREAM
D:\IDE\MICROSOFT VISUAL STUDIO 2010\VC\INCLUDE\ISTREAM
D:\IDE\MICROSOFT VISUAL STUDIO 2010\VC\INCLUDE\OSTREAM
D:\IDE\MICROSOFT VISUAL STUDIO 2010\VC\INCLUDE\IOS
D:\IDE\MICROSOFT VISUAL STUDIO 2010\VC\INCLUDE\XLOCNUM
D:\IDE\MICROSOFT VISUAL STUDIO 2010\VC\INCLUDE\CLIMITS
D:\IDE\MICROSOFT VISUAL STUDIO 2010\VC\INCLUDE\YVALS.H
D:\IDE\MICROSOFT VISUAL STUDIO 2010\VC\INCLUDE\CRTDEFS.H
D:\IDE\MICROSOFT VISUAL STUDIO 2010\VC\INCLUDE\SAL.H
D:\IDE\MICROSOFT VISUAL STUDIO 2010\VC\INCLUDE\CODEANALYSIS\SOURCEANNOTATIONS.H
D:\IDE\MICROSOFT VISUAL STUDIO 2010\VC\INCLUDE\VADEFS.H
D:\IDE\MICROSOFT VISUAL STUDIO 2010\VC\INCLUDE\USE_ANSI.H
D:\IDE\MICROSOFT VISUAL STUDIO 2010\VC\INCLUDE\LIMITS.H
D:\IDE\MICROSOFT VISUAL STUDIO 2010\VC\INCLUDE\CMATH
D:\IDE\MICROSOFT VISUAL STUDIO 2010\VC\INCLUDE\MATH.H
D:\IDE\MICROSOFT VISUAL STUDIO 2010\VC\INCLUDE\CSTDIO
D:\IDE\MICROSOFT VISUAL STUDIO 2010\VC\INCLUDE\STDIO.H
D:\IDE\MICROSOFT VISUAL STUDIO 2010\VC\INCLUDE\SWPRINTF.INL
D:\IDE\MICROSOFT VISUAL STUDIO 2010\VC\INCLUDE\CSTDLIB
D:\IDE\MICROSOFT VISUAL STUDIO 2010\VC\INCLUDE\STDLIB.H
D:\IDE\MICROSOFT VISUAL STUDIO 2010\VC\INCLUDE\STREAMBUF
D:\IDE\MICROSOFT VISUAL STUDIO 2010\VC\INCLUDE\XIOSBASE
D:\IDE\MICROSOFT VISUAL STUDIO 2010\VC\INCLUDE\XLOCALE
D:\IDE\MICROSOFT VISUAL STUDIO 2010\VC\INCLUDE\CSTRING
D:\IDE\MICROSOFT VISUAL STUDIO 2010\VC\INCLUDE\STRING.H
D:\IDE\MICROSOFT VISUAL STUDIO 2010\VC\INCLUDE\STDEXCEPT
D:\IDE\MICROSOFT VISUAL STUDIO 2010\VC\INCLUDE\EXCEPTION
D:\IDE\MICROSOFT VISUAL STUDIO 2010\VC\INCLUDE\XSTDDEF
D:\IDE\MICROSOFT VISUAL STUDIO 2010\VC\INCLUDE\CSTDDEF
D:\IDE\MICROSOFT VISUAL STUDIO 2010\VC\INCLUDE\STDDEF.H
D:\IDE\MICROSOFT VISUAL STUDIO 2010\VC\INCLUDE\EH.H
D:\IDE\MICROSOFT VISUAL STUDIO 2010\VC\INCLUDE\MALLOC.H
D:\IDE\MICROSOFT VISUAL STUDIO 2010\VC\INCLUDE\XSTRING
D:\IDE\MICROSOFT VISUAL STUDIO 2010\VC\INCLUDE\XMEMORY
D:\IDE\MICROSOFT VISUAL STUDIO 2010\VC\INCLUDE\NEW
D:\IDE\MICROSOFT VISUAL STUDIO 2010\VC\INCLUDE\XUTILITY
D:\IDE\MICROSOFT VISUAL STUDIO 2010\VC\INCLUDE\UTILITY
D:\IDE\MICROSOFT VISUAL STUDIO 2010\VC\INCLUDE\IOSFWD
D:\IDE\MICROSOFT VISUAL STUDIO 2010\VC\INCLUDE\CWCHAR
D:\IDE\MICROSOFT VISUAL STUDIO 2010\VC\INCLUDE\WCHAR.H
D:\IDE\MICROSOFT VISUAL STUDIO 2010\VC\INCLUDE\WTIME.INL
D:\IDE\MICROSOFT VISUAL STUDIO 2010\VC\INCLUDE\CRTDBG.H
D:\IDE\MICROSOFT VISUAL STUDIO 2010\VC\INCLUDE\TYPE_TRAITS
D:\IDE\MICROSOFT VISUAL STUDIO 2010\VC\INCLUDE\LIMITS
D:\IDE\MICROSOFT VISUAL STUDIO 2010\VC\INCLUDE\YMATH.H
D:\IDE\MICROSOFT VISUAL STUDIO 2010\VC\INCLUDE\CFLOAT
D:\IDE\MICROSOFT VISUAL STUDIO 2010\VC\INCLUDE\FLOAT.H
D:\IDE\MICROSOFT VISUAL STUDIO 2010\VC\INCLUDE\CRTWRN.H
D:\IDE\MICROSOFT VISUAL STUDIO 2010\VC\INCLUDE\XTR1COMMON
D:\IDE\MICROSOFT VISUAL STUDIO 2010\VC\INCLUDE\XFWRAP
D:\IDE\MICROSOFT VISUAL STUDIO 2010\VC\INCLUDE\XFWRAP1
D:\IDE\MICROSOFT VISUAL STUDIO 2010\VC\INCLUDE\XXTYPE_TRAITS
D:\IDE\MICROSOFT VISUAL STUDIO 2010\VC\INCLUDE\TYPEINFO
D:\IDE\MICROSOFT VISUAL STUDIO 2010\VC\INCLUDE\XLOCINFO
D:\IDE\MICROSOFT VISUAL STUDIO 2010\VC\INCLUDE\XLOCINFO.H
D:\IDE\MICROSOFT VISUAL STUDIO 2010\VC\INCLUDE\CTYPE.H
D:\IDE\MICROSOFT VISUAL STUDIO 2010\VC\INCLUDE\LOCALE.H
D:\IDE\MICROSOFT VISUAL STUDIO 2010\VC\INCLUDE\XDEBUG
D:\IDE\MICROSOFT VISUAL STUDIO 2010\VC\INCLUDE\SYSTEM_ERROR
D:\IDE\MICROSOFT VISUAL STUDIO 2010\VC\INCLUDE\CERRNO
D:\IDE\MICROSOFT VISUAL STUDIO 2010\VC\INCLUDE\ERRNO.H
D:\IDE\MICROSOFT VISUAL STUDIO 2010\VC\INCLUDE\SHARE.H
D:\IDE\MICROSOFT VISUAL STUDIO 2010\VC\INCLUDE\VECTOR
D:\IDE\MICROSOFT VISUAL STUDIO 2010\VC\INCLUDE\MEMORY
D:\IDE\MICROSOFT VISUAL STUDIO 2010\VC\INCLUDE\INTRIN.H
D:\IDE\MICROSOFT VISUAL STUDIO 2010\VC\INCLUDE\SETJMP.H
D:\IDE\MICROSOFT VISUAL STUDIO 2010\VC\INCLUDE\SETJMPEX.H
D:\IDE\MICROSOFT VISUAL STUDIO 2010\VC\INCLUDE\XXSHARED
D:\IDE\MICROSOFT VISUAL STUDIO 2010\VC\INCLUDE\XFUNCTIONAL
D:\IDE\MICROSOFT VISUAL STUDIO 2010\VC\INCLUDE\STRING
D:\IDE\MICROSOFT VISUAL STUDIO 2010\VC\INCLUDE\STRSTREAM
D:\IDE\MICROSOFT VISUAL STUDIO 2010\VC\INCLUDE\ALGORITHM
E:\MYPROGRAMS\TIMELIMIT\TIMELIMIT\STRCONVERT.H
D:\IDE\MICROSOFT VISUAL STUDIO 2010\VC\INCLUDE\VCCLR.H
D:\IDE\MICROSOFT VISUAL STUDIO 2010\VC\INCLUDE\GCROOT.H
D:\IDE\MICROSOFT VISUAL STUDIO 2010\VC\INCLUDE\MSCLR\GCROOT.H
C:\PROGRAM FILES (X86)\MICROSOFT SDKS\WINDOWS\V7.0A\INCLUDE\WINDOWS.H
C:\PROGRAM FILES (X86)\MICROSOFT SDKS\WINDOWS\V7.0A\INCLUDE\SDKDDKVER.H
D:\IDE\MICROSOFT VISUAL STUDIO 2010\VC\INCLUDE\EXCPT.H
D:\IDE\MICROSOFT VISUAL STUDIO 2010\VC\INCLUDE\STDARG.H
C:\PROGRAM FILES (X86)\MICROSOFT SDKS\WINDOWS\V7.0A\INCLUDE\WINDEF.H
C:\PROGRAM FILES (X86)\MICROSOFT SDKS\WINDOWS\V7.0A\INCLUDE\WINNT.H
C:\PROGRAM FILES (X86)\MICROSOFT SDKS\WINDOWS\V7.0A\INCLUDE\SPECSTRINGS.H
C:\PROGRAM FILES (X86)\MICROSOFT SDKS\WINDOWS\V7.0A\INCLUDE\SAL_SUPP.H
C:\PROGRAM FILES (X86)\MICROSOFT SDKS\WINDOWS\V7.0A\INCLUDE\SPECSTRINGS_SUPP.H
C:\PROGRAM FILES (X86)\MICROSOFT SDKS\WINDOWS\V7.0A\INCLUDE\SPECSTRINGS_STRICT.H
C:\PROGRAM FILES (X86)\MICROSOFT SDKS\WINDOWS\V7.0A\INCLUDE\SPECSTRINGS_UNDEF.H
C:\PROGRAM FILES (X86)\MICROSOFT SDKS\WINDOWS\V7.0A\INCLUDE\DRIVERSPECS.H
C:\PROGRAM FILES (X86)\MICROSOFT SDKS\WINDOWS\V7.0A\INCLUDE\SDV_DRIVERSPECS.H
C:\PROGRAM FILES (X86)\MICROSOFT SDKS\WINDOWS\V7.0A\INCLUDE\KERNELSPECS.H
C:\PROGRAM FILES (X86)\MICROSOFT SDKS\WINDOWS\V7.0A\INCLUDE\BASETSD.H
C:\PROGRAM FILES (X86)\MICROSOFT SDKS\WINDOWS\V7.0A\INCLUDE\GUIDDEF.H
C:\PROGRAM FILES (X86)\MICROSOFT SDKS\WINDOWS\V7.0A\INCLUDE\PSHPACK4.H
C:\PROGRAM FILES (X86)\MICROSOFT SDKS\WINDOWS\V7.0A\INCLUDE\POPPACK.H
C:\PROGRAM FILES (X86)\MICROSOFT SDKS\WINDOWS\V7.0A\INCLUDE\PSHPACK2.H
C:\PROGRAM FILES (X86)\MICROSOFT SDKS\WINDOWS\V7.0A\INCLUDE\PSHPACK8.H
C:\PROGRAM FILES (X86)\MICROSOFT SDKS\WINDOWS\V7.0A\INCLUDE\KTMTYPES.H
C:\PROGRAM FILES (X86)\MICROSOFT SDKS\WINDOWS\V7.0A\INCLUDE\WINBASE.H
C:\PROGRAM FILES (X86)\MICROSOFT SDKS\WINDOWS\V7.0A\INCLUDE\WINERROR.H
C:\PROGRAM FILES (X86)\MICROSOFT SDKS\WINDOWS\V7.0A\INCLUDE\WINGDI.H
C:\PROGRAM FILES (X86)\MICROSOFT SDKS\WINDOWS\V7.0A\INCLUDE\PSHPACK1.H
C:\PROGRAM FILES (X86)\MICROSOFT SDKS\WINDOWS\V7.0A\INCLUDE\WINUSER.H
C:\PROGRAM FILES (X86)\MICROSOFT SDKS\WINDOWS\V7.0A\INCLUDE\TVOUT.H
C:\PROGRAM FILES (X86)\MICROSOFT SDKS\WINDOWS\V7.0A\INCLUDE\WINNLS.H
C:\PROGRAM FILES (X86)\MICROSOFT SDKS\WINDOWS\V7.0A\INCLUDE\WINCON.H
C:\PROGRAM FILES (X86)\MICROSOFT SDKS\WINDOWS\V7.0A\INCLUDE\WINVER.H
C:\PROGRAM FILES (X86)\MICROSOFT SDKS\WINDOWS\V7.0A\INCLUDE\VERRSRC.H
C:\PROGRAM FILES (X86)\MICROSOFT SDKS\WINDOWS\V7.0A\INCLUDE\WINREG.H
C:\PROGRAM FILES (X86)\MICROSOFT SDKS\WINDOWS\V7.0A\INCLUDE\REASON.H
C:\PROGRAM FILES (X86)\MICROSOFT SDKS\WINDOWS\V7.0A\INCLUDE\WINNETWK.H
C:\PROGRAM FILES (X86)\MICROSOFT SDKS\WINDOWS\V7.0A\INCLUDE\WNNC.H
C:\PROGRAM FILES (X86)\MICROSOFT SDKS\WINDOWS\V7.0A\INCLUDE\CDERR.H
C:\PROGRAM FILES (X86)\MICROSOFT SDKS\WINDOWS\V7.0A\INCLUDE\DDE.H
C:\PROGRAM FILES (X86)\MICROSOFT SDKS\WINDOWS\V7.0A\INCLUDE\DDEML.H
C:\PROGRAM FILES (X86)\MICROSOFT SDKS\WINDOWS\V7.0A\INCLUDE\DLGS.H
C:\PROGRAM FILES (X86)\MICROSOFT SDKS\WINDOWS\V7.0A\INCLUDE\LZEXPAND.H
C:\PROGRAM FILES (X86)\MICROSOFT SDKS\WINDOWS\V7.0A\INCLUDE\MMSYSTEM.H
C:\PROGRAM FILES (X86)\MICROSOFT SDKS\WINDOWS\V7.0A\INCLUDE\NB30.H
C:\PROGRAM FILES (X86)\MICROSOFT SDKS\WINDOWS\V7.0A\INCLUDE\RPC.H
C:\PROGRAM FILES (X86)\MICROSOFT SDKS\WINDOWS\V7.0A\INCLUDE\RPCDCE.H
C:\PROGRAM FILES (X86)\MICROSOFT SDKS\WINDOWS\V7.0A\INCLUDE\RPCDCEP.H
C:\PROGRAM FILES (X86)\MICROSOFT SDKS\WINDOWS\V7.0A\INCLUDE\RPCNSI.H
C:\PROGRAM FILES (X86)\MICROSOFT SDKS\WINDOWS\V7.0A\INCLUDE\RPCNTERR.H
C:\PROGRAM FILES (X86)\MICROSOFT SDKS\WINDOWS\V7.0A\INCLUDE\RPCASYNC.H
C:\PROGRAM FILES (X86)\MICROSOFT SDKS\WINDOWS\V7.0A\INCLUDE\SHELLAPI.H
C:\PROGRAM FILES (X86)\MICROSOFT SDKS\WINDOWS\V7.0A\INCLUDE\WINPERF.H
C:\PROGRAM FILES (X86)\MICROSOFT SDKS\WINDOWS\V7.0A\INCLUDE\WINSOCK.H
C:\PROGRAM FILES (X86)\MICROSOFT SDKS\WINDOWS\V7.0A\INCLUDE\INADDR.H
C:\PROGRAM FILES (X86)\MICROSOFT SDKS\WINDOWS\V7.0A\INCLUDE\WINCRYPT.H
C:\PROGRAM FILES (X86)\MICROSOFT SDKS\WINDOWS\V7.0A\INCLUDE\BCRYPT.H
C:\PROGRAM FILES (X86)\MICROSOFT SDKS\WINDOWS\V7.0A\INCLUDE\NCRYPT.H
C:\PROGRAM FILES (X86)\MICROSOFT SDKS\WINDOWS\V7.0A\INCLUDE\WINEFS.H
C:\PROGRAM FILES (X86)\MICROSOFT SDKS\WINDOWS\V7.0A\INCLUDE\WINSCARD.H
C:\PROGRAM FILES (X86)\MICROSOFT SDKS\WINDOWS\V7.0A\INCLUDE\WTYPES.H
C:\PROGRAM FILES (X86)\MICROSOFT SDKS\WINDOWS\V7.0A\INCLUDE\RPCNDR.H
C:\PROGRAM FILES (X86)\MICROSOFT SDKS\WINDOWS\V7.0A\INCLUDE\RPCNSIP.H
C:\PROGRAM FILES (X86)\MICROSOFT SDKS\WINDOWS\V7.0A\INCLUDE\RPCSAL.H
C:\PROGRAM FILES (X86)\MICROSOFT SDKS\WINDOWS\V7.0A\INCLUDE\WINIOCTL.H
C:\PROGRAM FILES (X86)\MICROSOFT SDKS\WINDOWS\V7.0A\INCLUDE\WINSMCRD.H
C:\PROGRAM FILES (X86)\MICROSOFT SDKS\WINDOWS\V7.0A\INCLUDE\WINSPOOL.H
C:\PROGRAM FILES (X86)\MICROSOFT SDKS\WINDOWS\V7.0A\INCLUDE\PRSHT.H
C:\PROGRAM FILES (X86)\MICROSOFT SDKS\WINDOWS\V7.0A\INCLUDE\OLE2.H
C:\PROGRAM FILES (X86)\MICROSOFT SDKS\WINDOWS\V7.0A\INCLUDE\OBJBASE.H
C:\PROGRAM FILES (X86)\MICROSOFT SDKS\WINDOWS\V7.0A\INCLUDE\UNKNWN.H
C:\PROGRAM FILES (X86)\MICROSOFT SDKS\WINDOWS\V7.0A\INCLUDE\OBJIDL.H
C:\PROGRAM FILES (X86)\MICROSOFT SDKS\WINDOWS\V7.0A\INCLUDE\CGUID.H
C:\PROGRAM FILES (X86)\MICROSOFT SDKS\WINDOWS\V7.0A\INCLUDE\URLMON.H
C:\PROGRAM FILES (X86)\MICROSOFT SDKS\WINDOWS\V7.0A\INCLUDE\OLEIDL.H
C:\PROGRAM FILES (X86)\MICROSOFT SDKS\WINDOWS\V7.0A\INCLUDE\SERVPROV.H
C:\PROGRAM FILES (X86)\MICROSOFT SDKS\WINDOWS\V7.0A\INCLUDE\MSXML.H
C:\PROGRAM FILES (X86)\MICROSOFT SDKS\WINDOWS\V7.0A\INCLUDE\OAIDL.H
C:\PROGRAM FILES (X86)\MICROSOFT SDKS\WINDOWS\V7.0A\INCLUDE\PROPIDL.H
C:\PROGRAM FILES (X86)\MICROSOFT SDKS\WINDOWS\V7.0A\INCLUDE\OLEAUTO.H
C:\PROGRAM FILES (X86)\MICROSOFT SDKS\WINDOWS\V7.0A\INCLUDE\COMMDLG.H
C:\PROGRAM FILES (X86)\MICROSOFT SDKS\WINDOWS\V7.0A\INCLUDE\STRALIGN.H
C:\PROGRAM FILES (X86)\MICROSOFT SDKS\WINDOWS\V7.0A\INCLUDE\WINSVC.H
C:\PROGRAM FILES (X86)\MICROSOFT SDKS\WINDOWS\V7.0A\INCLUDE\MCX.H
C:\PROGRAM FILES (X86)\MICROSOFT SDKS\WINDOWS\V7.0A\INCLUDE\IMM.H
C:\PROGRAM FILES (X86)\MICROSOFT SDKS\WINDOWS\V7.0A\INCLUDE\IME_CMODES.H
E:\MYPROGRAMS\TIMELIMIT\TIMELIMIT\TYPE.H
E:\MYPROGRAMS\TIMELIMIT\TIMELIMIT\CHANGE1.H
C:\PROGRAM FILES (X86)\REFERENCE ASSEMBLIES\MICROSOFT\FRAMEWORK\.NETFRAMEWORK\V4.0\MICROSOFT.VISUALC.DLL
^E:\MYPROGRAMS\TIMELIMIT\TIMELIMIT\STRCONVERT.CPP
E:\MYPROGRAMS\TIMELIMIT\TIMELIMIT\RELEASE\TIMELIMIT.PCH
D:\IDE\MICROSOFT VISUAL STUDIO 2010\VC\BIN\CL.EXE.CONFIG
C:\PROGRAM FILES (X86)\REFERENCE ASSEMBLIES\MICROSOFT\FRAMEWORK\.NETFRAMEWORK\V4.0\MSCORLIB.DLL
C:\PROGRAM FILES (X86)\REFERENCE ASSEMBLIES\MICROSOFT\FRAMEWORK\.NETFRAMEWORK\V4.0\SYSTEM.CORE.DLL
C:\PROGRAM FILES (X86)\REFERENCE ASSEMBLIES\MICROSOFT\FRAMEWORK\.NETFRAMEWORK\V4.0\SYSTEM.DATA.DLL
C:\PROGRAM FILES (X86)\REFERENCE ASSEMBLIES\MICROSOFT\FRAMEWORK\.NETFRAMEWORK\V4.0\SYSTEM.DLL
C:\PROGRAM FILES (X86)\REFERENCE ASSEMBLIES\MICROSOFT\FRAMEWORK\.NETFRAMEWORK\V4.0\SYSTEM.DRAWING.DLL
C:\PROGRAM FILES (X86)\REFERENCE ASSEMBLIES\MICROSOFT\FRAMEWORK\.NETFRAMEWORK\V4.0\SYSTEM.WINDOWS.FORMS.DLL
C:\PROGRAM FILES (X86)\REFERENCE ASSEMBLIES\MICROSOFT\FRAMEWORK\.NETFRAMEWORK\V4.0\SYSTEM.XML.DLL
E:\MYPROGRAMS\TIMELIMIT\TIMELIMIT\RELEASE\STDAFX.OBJ
E:\MYPROGRAMS\TIMELIMIT\TIMELIMIT\STRCONVERT.H
D:\IDE\MICROSOFT VISUAL STUDIO 2010\VC\INCLUDE\VCCLR.H
D:\IDE\MICROSOFT VISUAL STUDIO 2010\VC\INCLUDE\GCROOT.H
D:\IDE\MICROSOFT VISUAL STUDIO 2010\VC\INCLUDE\STDDEF.H
D:\IDE\MICROSOFT VISUAL STUDIO 2010\VC\INCLUDE\CRTDEFS.H
D:\IDE\MICROSOFT VISUAL STUDIO 2010\VC\INCLUDE\SAL.H
D:\IDE\MICROSOFT VISUAL STUDIO 2010\VC\INCLUDE\CODEANALYSIS\SOURCEANNOTATIONS.H
D:\IDE\MICROSOFT VISUAL STUDIO 2010\VC\INCLUDE\VADEFS.H
D:\IDE\MICROSOFT VISUAL STUDIO 2010\VC\INCLUDE\MSCLR\GCROOT.H
D:\IDE\MICROSOFT VISUAL STUDIO 2010\VC\INCLUDE\STDLIB.H
D:\IDE\MICROSOFT VISUAL STUDIO 2010\VC\INCLUDE\LIMITS.H
D:\IDE\MICROSOFT VISUAL STUDIO 2010\VC\INCLUDE\STRING
D:\IDE\MICROSOFT VISUAL STUDIO 2010\VC\INCLUDE\ISTREAM
D:\IDE\MICROSOFT VISUAL STUDIO 2010\VC\INCLUDE\OSTREAM
D:\IDE\MICROSOFT VISUAL STUDIO 2010\VC\INCLUDE\IOS
D:\IDE\MICROSOFT VISUAL STUDIO 2010\VC\INCLUDE\XLOCNUM
D:\IDE\MICROSOFT VISUAL STUDIO 2010\VC\INCLUDE\CLIMITS
D:\IDE\MICROSOFT VISUAL STUDIO 2010\VC\INCLUDE\YVALS.H
D:\IDE\MICROSOFT VISUAL STUDIO 2010\VC\INCLUDE\USE_ANSI.H
D:\IDE\MICROSOFT VISUAL STUDIO 2010\VC\INCLUDE\CMATH
D:\IDE\MICROSOFT VISUAL STUDIO 2010\VC\INCLUDE\MATH.H
D:\IDE\MICROSOFT VISUAL STUDIO 2010\VC\INCLUDE\CSTDIO
D:\IDE\MICROSOFT VISUAL STUDIO 2010\VC\INCLUDE\STDIO.H
D:\IDE\MICROSOFT VISUAL STUDIO 2010\VC\INCLUDE\SWPRINTF.INL
D:\IDE\MICROSOFT VISUAL STUDIO 2010\VC\INCLUDE\CSTDLIB
D:\IDE\MICROSOFT VISUAL STUDIO 2010\VC\INCLUDE\STREAMBUF
D:\IDE\MICROSOFT VISUAL STUDIO 2010\VC\INCLUDE\XIOSBASE
D:\IDE\MICROSOFT VISUAL STUDIO 2010\VC\INCLUDE\XLOCALE
D:\IDE\MICROSOFT VISUAL STUDIO 2010\VC\INCLUDE\CSTRING
D:\IDE\MICROSOFT VISUAL STUDIO 2010\VC\INCLUDE\STRING.H
D:\IDE\MICROSOFT VISUAL STUDIO 2010\VC\INCLUDE\STDEXCEPT
D:\IDE\MICROSOFT VISUAL STUDIO 2010\VC\INCLUDE\EXCEPTION
D:\IDE\MICROSOFT VISUAL STUDIO 2010\VC\INCLUDE\XSTDDEF
D:\IDE\MICROSOFT VISUAL STUDIO 2010\VC\INCLUDE\CSTDDEF
D:\IDE\MICROSOFT VISUAL STUDIO 2010\VC\INCLUDE\EH.H
D:\IDE\MICROSOFT VISUAL STUDIO 2010\VC\INCLUDE\MALLOC.H
D:\IDE\MICROSOFT VISUAL STUDIO 2010\VC\INCLUDE\XSTRING
D:\IDE\MICROSOFT VISUAL STUDIO 2010\VC\INCLUDE\XMEMORY
D:\IDE\MICROSOFT VISUAL STUDIO 2010\VC\INCLUDE\NEW
D:\IDE\MICROSOFT VISUAL STUDIO 2010\VC\INCLUDE\XUTILITY
D:\IDE\MICROSOFT VISUAL STUDIO 2010\VC\INCLUDE\UTILITY
D:\IDE\MICROSOFT VISUAL STUDIO 2010\VC\INCLUDE\IOSFWD
D:\IDE\MICROSOFT VISUAL STUDIO 2010\VC\INCLUDE\CWCHAR
D:\IDE\MICROSOFT VISUAL STUDIO 2010\VC\INCLUDE\WCHAR.H
D:\IDE\MICROSOFT VISUAL STUDIO 2010\VC\INCLUDE\WTIME.INL
D:\IDE\MICROSOFT VISUAL STUDIO 2010\VC\INCLUDE\CRTDBG.H
D:\IDE\MICROSOFT VISUAL STUDIO 2010\VC\INCLUDE\TYPE_TRAITS
D:\IDE\MICROSOFT VISUAL STUDIO 2010\VC\INCLUDE\LIMITS
D:\IDE\MICROSOFT VISUAL STUDIO 2010\VC\INCLUDE\YMATH.H
D:\IDE\MICROSOFT VISUAL STUDIO 2010\VC\INCLUDE\CFLOAT
D:\IDE\MICROSOFT VISUAL STUDIO 2010\VC\INCLUDE\FLOAT.H
D:\IDE\MICROSOFT VISUAL STUDIO 2010\VC\INCLUDE\CRTWRN.H
D:\IDE\MICROSOFT VISUAL STUDIO 2010\VC\INCLUDE\XTR1COMMON
D:\IDE\MICROSOFT VISUAL STUDIO 2010\VC\INCLUDE\XFWRAP
D:\IDE\MICROSOFT VISUAL STUDIO 2010\VC\INCLUDE\XFWRAP1
D:\IDE\MICROSOFT VISUAL STUDIO 2010\VC\INCLUDE\XXTYPE_TRAITS
D:\IDE\MICROSOFT VISUAL STUDIO 2010\VC\INCLUDE\TYPEINFO
D:\IDE\MICROSOFT VISUAL STUDIO 2010\VC\INCLUDE\XLOCINFO
D:\IDE\MICROSOFT VISUAL STUDIO 2010\VC\INCLUDE\XLOCINFO.H
D:\IDE\MICROSOFT VISUAL STUDIO 2010\VC\INCLUDE\CTYPE.H
D:\IDE\MICROSOFT VISUAL STUDIO 2010\VC\INCLUDE\LOCALE.H
D:\IDE\MICROSOFT VISUAL STUDIO 2010\VC\INCLUDE\XDEBUG
D:\IDE\MICROSOFT VISUAL STUDIO 2010\VC\INCLUDE\SYSTEM_ERROR
D:\IDE\MICROSOFT VISUAL STUDIO 2010\VC\INCLUDE\CERRNO
D:\IDE\MICROSOFT VISUAL STUDIO 2010\VC\INCLUDE\ERRNO.H
D:\IDE\MICROSOFT VISUAL STUDIO 2010\VC\INCLUDE\SHARE.H
C:\PROGRAM FILES (X86)\MICROSOFT SDKS\WINDOWS\V7.0A\INCLUDE\WINDOWS.H
C:\PROGRAM FILES (X86)\MICROSOFT SDKS\WINDOWS\V7.0A\INCLUDE\SDKDDKVER.H
D:\IDE\MICROSOFT VISUAL STUDIO 2010\VC\INCLUDE\EXCPT.H
D:\IDE\MICROSOFT VISUAL STUDIO 2010\VC\INCLUDE\STDARG.H
C:\PROGRAM FILES (X86)\MICROSOFT SDKS\WINDOWS\V7.0A\INCLUDE\WINDEF.H
C:\PROGRAM FILES (X86)\MICROSOFT SDKS\WINDOWS\V7.0A\INCLUDE\WINNT.H
C:\PROGRAM FILES (X86)\MICROSOFT SDKS\WINDOWS\V7.0A\INCLUDE\SPECSTRINGS.H
C:\PROGRAM FILES (X86)\MICROSOFT SDKS\WINDOWS\V7.0A\INCLUDE\SAL_SUPP.H
C:\PROGRAM FILES (X86)\MICROSOFT SDKS\WINDOWS\V7.0A\INCLUDE\SPECSTRINGS_SUPP.H
C:\PROGRAM FILES (X86)\MICROSOFT SDKS\WINDOWS\V7.0A\INCLUDE\SPECSTRINGS_STRICT.H
C:\PROGRAM FILES (X86)\MICROSOFT SDKS\WINDOWS\V7.0A\INCLUDE\SPECSTRINGS_UNDEF.H
C:\PROGRAM FILES (X86)\MICROSOFT SDKS\WINDOWS\V7.0A\INCLUDE\DRIVERSPECS.H
C:\PROGRAM FILES (X86)\MICROSOFT SDKS\WINDOWS\V7.0A\INCLUDE\SDV_DRIVERSPECS.H
C:\PROGRAM FILES (X86)\MICROSOFT SDKS\WINDOWS\V7.0A\INCLUDE\KERNELSPECS.H
C:\PROGRAM FILES (X86)\MICROSOFT SDKS\WINDOWS\V7.0A\INCLUDE\BASETSD.H
C:\PROGRAM FILES (X86)\MICROSOFT SDKS\WINDOWS\V7.0A\INCLUDE\GUIDDEF.H
C:\PROGRAM FILES (X86)\MICROSOFT SDKS\WINDOWS\V7.0A\INCLUDE\PSHPACK4.H
C:\PROGRAM FILES (X86)\MICROSOFT SDKS\WINDOWS\V7.0A\INCLUDE\POPPACK.H
C:\PROGRAM FILES (X86)\MICROSOFT SDKS\WINDOWS\V7.0A\INCLUDE\PSHPACK2.H
C:\PROGRAM FILES (X86)\MICROSOFT SDKS\WINDOWS\V7.0A\INCLUDE\PSHPACK8.H
C:\PROGRAM FILES (X86)\MICROSOFT SDKS\WINDOWS\V7.0A\INCLUDE\KTMTYPES.H
C:\PROGRAM FILES (X86)\MICROSOFT SDKS\WINDOWS\V7.0A\INCLUDE\WINBASE.H
C:\PROGRAM FILES (X86)\MICROSOFT SDKS\WINDOWS\V7.0A\INCLUDE\WINERROR.H
C:\PROGRAM FILES (X86)\MICROSOFT SDKS\WINDOWS\V7.0A\INCLUDE\WINGDI.H
C:\PROGRAM FILES (X86)\MICROSOFT SDKS\WINDOWS\V7.0A\INCLUDE\PSHPACK1.H
C:\PROGRAM FILES (X86)\MICROSOFT SDKS\WINDOWS\V7.0A\INCLUDE\WINUSER.H
C:\PROGRAM FILES (X86)\MICROSOFT SDKS\WINDOWS\V7.0A\INCLUDE\TVOUT.H
C:\PROGRAM FILES (X86)\MICROSOFT SDKS\WINDOWS\V7.0A\INCLUDE\WINNLS.H
C:\PROGRAM FILES (X86)\MICROSOFT SDKS\WINDOWS\V7.0A\INCLUDE\WINCON.H
C:\PROGRAM FILES (X86)\MICROSOFT SDKS\WINDOWS\V7.0A\INCLUDE\WINVER.H
C:\PROGRAM FILES (X86)\MICROSOFT SDKS\WINDOWS\V7.0A\INCLUDE\VERRSRC.H
C:\PROGRAM FILES (X86)\MICROSOFT SDKS\WINDOWS\V7.0A\INCLUDE\WINREG.H
C:\PROGRAM FILES (X86)\MICROSOFT SDKS\WINDOWS\V7.0A\INCLUDE\REASON.H
C:\PROGRAM FILES (X86)\MICROSOFT SDKS\WINDOWS\V7.0A\INCLUDE\WINNETWK.H
C:\PROGRAM FILES (X86)\MICROSOFT SDKS\WINDOWS\V7.0A\INCLUDE\WNNC.H
C:\PROGRAM FILES (X86)\MICROSOFT SDKS\WINDOWS\V7.0A\INCLUDE\CDERR.H
C:\PROGRAM FILES (X86)\MICROSOFT SDKS\WINDOWS\V7.0A\INCLUDE\DDE.H
C:\PROGRAM FILES (X86)\MICROSOFT SDKS\WINDOWS\V7.0A\INCLUDE\DDEML.H
C:\PROGRAM FILES (X86)\MICROSOFT SDKS\WINDOWS\V7.0A\INCLUDE\DLGS.H
C:\PROGRAM FILES (X86)\MICROSOFT SDKS\WINDOWS\V7.0A\INCLUDE\LZEXPAND.H
C:\PROGRAM FILES (X86)\MICROSOFT SDKS\WINDOWS\V7.0A\INCLUDE\MMSYSTEM.H
C:\PROGRAM FILES (X86)\MICROSOFT SDKS\WINDOWS\V7.0A\INCLUDE\NB30.H
C:\PROGRAM FILES (X86)\MICROSOFT SDKS\WINDOWS\V7.0A\INCLUDE\RPC.H
C:\PROGRAM FILES (X86)\MICROSOFT SDKS\WINDOWS\V7.0A\INCLUDE\RPCDCE.H
C:\PROGRAM FILES (X86)\MICROSOFT SDKS\WINDOWS\V7.0A\INCLUDE\RPCDCEP.H
C:\PROGRAM FILES (X86)\MICROSOFT SDKS\WINDOWS\V7.0A\INCLUDE\RPCNSI.H
C:\PROGRAM FILES (X86)\MICROSOFT SDKS\WINDOWS\V7.0A\INCLUDE\RPCNTERR.H
C:\PROGRAM FILES (X86)\MICROSOFT SDKS\WINDOWS\V7.0A\INCLUDE\RPCASYNC.H
C:\PROGRAM FILES (X86)\MICROSOFT SDKS\WINDOWS\V7.0A\INCLUDE\SHELLAPI.H
C:\PROGRAM FILES (X86)\MICROSOFT SDKS\WINDOWS\V7.0A\INCLUDE\WINPERF.H
C:\PROGRAM FILES (X86)\MICROSOFT SDKS\WINDOWS\V7.0A\INCLUDE\WINSOCK.H
C:\PROGRAM FILES (X86)\MICROSOFT SDKS\WINDOWS\V7.0A\INCLUDE\INADDR.H
C:\PROGRAM FILES (X86)\MICROSOFT SDKS\WINDOWS\V7.0A\INCLUDE\WINCRYPT.H
C:\PROGRAM FILES (X86)\MICROSOFT SDKS\WINDOWS\V7.0A\INCLUDE\BCRYPT.H
C:\PROGRAM FILES (X86)\MICROSOFT SDKS\WINDOWS\V7.0A\INCLUDE\NCRYPT.H
C:\PROGRAM FILES (X86)\MICROSOFT SDKS\WINDOWS\V7.0A\INCLUDE\WINEFS.H
C:\PROGRAM FILES (X86)\MICROSOFT SDKS\WINDOWS\V7.0A\INCLUDE\WINSCARD.H
C:\PROGRAM FILES (X86)\MICROSOFT SDKS\WINDOWS\V7.0A\INCLUDE\WTYPES.H
C:\PROGRAM FILES (X86)\MICROSOFT SDKS\WINDOWS\V7.0A\INCLUDE\RPCNDR.H
C:\PROGRAM FILES (X86)\MICROSOFT SDKS\WINDOWS\V7.0A\INCLUDE\RPCNSIP.H
C:\PROGRAM FILES (X86)\MICROSOFT SDKS\WINDOWS\V7.0A\INCLUDE\RPCSAL.H
C:\PROGRAM FILES (X86)\MICROSOFT SDKS\WINDOWS\V7.0A\INCLUDE\WINIOCTL.H
C:\PROGRAM FILES (X86)\MICROSOFT SDKS\WINDOWS\V7.0A\INCLUDE\WINSMCRD.H
C:\PROGRAM FILES (X86)\MICROSOFT SDKS\WINDOWS\V7.0A\INCLUDE\WINSPOOL.H
C:\PROGRAM FILES (X86)\MICROSOFT SDKS\WINDOWS\V7.0A\INCLUDE\PRSHT.H
C:\PROGRAM FILES (X86)\MICROSOFT SDKS\WINDOWS\V7.0A\INCLUDE\OLE2.H
C:\PROGRAM FILES (X86)\MICROSOFT SDKS\WINDOWS\V7.0A\INCLUDE\OBJBASE.H
C:\PROGRAM FILES (X86)\MICROSOFT SDKS\WINDOWS\V7.0A\INCLUDE\UNKNWN.H
C:\PROGRAM FILES (X86)\MICROSOFT SDKS\WINDOWS\V7.0A\INCLUDE\OBJIDL.H
C:\PROGRAM FILES (X86)\MICROSOFT SDKS\WINDOWS\V7.0A\INCLUDE\CGUID.H
C:\PROGRAM FILES (X86)\MICROSOFT SDKS\WINDOWS\V7.0A\INCLUDE\URLMON.H
C:\PROGRAM FILES (X86)\MICROSOFT SDKS\WINDOWS\V7.0A\INCLUDE\OLEIDL.H
C:\PROGRAM FILES (X86)\MICROSOFT SDKS\WINDOWS\V7.0A\INCLUDE\SERVPROV.H
C:\PROGRAM FILES (X86)\MICROSOFT SDKS\WINDOWS\V7.0A\INCLUDE\MSXML.H
C:\PROGRAM FILES (X86)\MICROSOFT SDKS\WINDOWS\V7.0A\INCLUDE\OAIDL.H
C:\PROGRAM FILES (X86)\MICROSOFT SDKS\WINDOWS\V7.0A\INCLUDE\PROPIDL.H
C:\PROGRAM FILES (X86)\MICROSOFT SDKS\WINDOWS\V7.0A\INCLUDE\OLEAUTO.H
C:\PROGRAM FILES (X86)\MICROSOFT SDKS\WINDOWS\V7.0A\INCLUDE\COMMDLG.H
C:\PROGRAM FILES (X86)\MICROSOFT SDKS\WINDOWS\V7.0A\INCLUDE\STRALIGN.H
C:\PROGRAM FILES (X86)\MICROSOFT SDKS\WINDOWS\V7.0A\INCLUDE\WINSVC.H
C:\PROGRAM FILES (X86)\MICROSOFT SDKS\WINDOWS\V7.0A\INCLUDE\MCX.H
C:\PROGRAM FILES (X86)\MICROSOFT SDKS\WINDOWS\V7.0A\INCLUDE\IMM.H
C:\PROGRAM FILES (X86)\MICROSOFT SDKS\WINDOWS\V7.0A\INCLUDE\IME_CMODES.H
C:\PROGRAM FILES (X86)\REFERENCE ASSEMBLIES\MICROSOFT\FRAMEWORK\.NETFRAMEWORK\V4.0\MICROSOFT.VISUALC.DLL
^E:\MYPROGRAMS\TIMELIMIT\TIMELIMIT\TIMELIMIT.CPP
E:\MYPROGRAMS\TIMELIMIT\TIMELIMIT\RELEASE\TIMELIMIT.PCH
D:\IDE\MICROSOFT VISUAL STUDIO 2010\VC\BIN\CL.EXE.CONFIG
C:\PROGRAM FILES (X86)\REFERENCE ASSEMBLIES\MICROSOFT\FRAMEWORK\.NETFRAMEWORK\V4.0\MSCORLIB.DLL
C:\PROGRAM FILES (X86)\REFERENCE ASSEMBLIES\MICROSOFT\FRAMEWORK\.NETFRAMEWORK\V4.0\SYSTEM.CORE.DLL
C:\PROGRAM FILES (X86)\REFERENCE ASSEMBLIES\MICROSOFT\FRAMEWORK\.NETFRAMEWORK\V4.0\SYSTEM.DATA.DLL
C:\PROGRAM FILES (X86)\REFERENCE ASSEMBLIES\MICROSOFT\FRAMEWORK\.NETFRAMEWORK\V4.0\SYSTEM.DLL
C:\PROGRAM FILES (X86)\REFERENCE ASSEMBLIES\MICROSOFT\FRAMEWORK\.NETFRAMEWORK\V4.0\SYSTEM.DRAWING.DLL
C:\PROGRAM FILES (X86)\REFERENCE ASSEMBLIES\MICROSOFT\FRAMEWORK\.NETFRAMEWORK\V4.0\SYSTEM.WINDOWS.FORMS.DLL
C:\PROGRAM FILES (X86)\REFERENCE ASSEMBLIES\MICROSOFT\FRAMEWORK\.NETFRAMEWORK\V4.0\SYSTEM.XML.DLL
E:\MYPROGRAMS\TIMELIMIT\TIMELIMIT\RELEASE\STDAFX.OBJ
E:\MYPROGRAMS\TIMELIMIT\TIMELIMIT\FORM1.H
D:\IDE\MICROSOFT VISUAL STUDIO 2010\VC\INCLUDE\FSTREAM
D:\IDE\MICROSOFT VISUAL STUDIO 2010\VC\INCLUDE\ISTREAM
D:\IDE\MICROSOFT VISUAL STUDIO 2010\VC\INCLUDE\OSTREAM
D:\IDE\MICROSOFT VISUAL STUDIO 2010\VC\INCLUDE\IOS
D:\IDE\MICROSOFT VISUAL STUDIO 2010\VC\INCLUDE\XLOCNUM
D:\IDE\MICROSOFT VISUAL STUDIO 2010\VC\INCLUDE\CLIMITS
D:\IDE\MICROSOFT VISUAL STUDIO 2010\VC\INCLUDE\YVALS.H
D:\IDE\MICROSOFT VISUAL STUDIO 2010\VC\INCLUDE\CRTDEFS.H
D:\IDE\MICROSOFT VISUAL STUDIO 2010\VC\INCLUDE\SAL.H
D:\IDE\MICROSOFT VISUAL STUDIO 2010\VC\INCLUDE\CODEANALYSIS\SOURCEANNOTATIONS.H
D:\IDE\MICROSOFT VISUAL STUDIO 2010\VC\INCLUDE\VADEFS.H
D:\IDE\MICROSOFT VISUAL STUDIO 2010\VC\INCLUDE\USE_ANSI.H
D:\IDE\MICROSOFT VISUAL STUDIO 2010\VC\INCLUDE\LIMITS.H
D:\IDE\MICROSOFT VISUAL STUDIO 2010\VC\INCLUDE\CMATH
D:\IDE\MICROSOFT VISUAL STUDIO 2010\VC\INCLUDE\MATH.H
D:\IDE\MICROSOFT VISUAL STUDIO 2010\VC\INCLUDE\CSTDIO
D:\IDE\MICROSOFT VISUAL STUDIO 2010\VC\INCLUDE\STDIO.H
D:\IDE\MICROSOFT VISUAL STUDIO 2010\VC\INCLUDE\SWPRINTF.INL
D:\IDE\MICROSOFT VISUAL STUDIO 2010\VC\INCLUDE\CSTDLIB
D:\IDE\MICROSOFT VISUAL STUDIO 2010\VC\INCLUDE\STDLIB.H
D:\IDE\MICROSOFT VISUAL STUDIO 2010\VC\INCLUDE\STREAMBUF
D:\IDE\MICROSOFT VISUAL STUDIO 2010\VC\INCLUDE\XIOSBASE
D:\IDE\MICROSOFT VISUAL STUDIO 2010\VC\INCLUDE\XLOCALE
D:\IDE\MICROSOFT VISUAL STUDIO 2010\VC\INCLUDE\CSTRING
D:\IDE\MICROSOFT VISUAL STUDIO 2010\VC\INCLUDE\STRING.H
D:\IDE\MICROSOFT VISUAL STUDIO 2010\VC\INCLUDE\STDEXCEPT
D:\IDE\MICROSOFT VISUAL STUDIO 2010\VC\INCLUDE\EXCEPTION
D:\IDE\MICROSOFT VISUAL STUDIO 2010\VC\INCLUDE\XSTDDEF
D:\IDE\MICROSOFT VISUAL STUDIO 2010\VC\INCLUDE\CSTDDEF
D:\IDE\MICROSOFT VISUAL STUDIO 2010\VC\INCLUDE\STDDEF.H
D:\IDE\MICROSOFT VISUAL STUDIO 2010\VC\INCLUDE\EH.H
D:\IDE\MICROSOFT VISUAL STUDIO 2010\VC\INCLUDE\MALLOC.H
D:\IDE\MICROSOFT VISUAL STUDIO 2010\VC\INCLUDE\XSTRING
D:\IDE\MICROSOFT VISUAL STUDIO 2010\VC\INCLUDE\XMEMORY
D:\IDE\MICROSOFT VISUAL STUDIO 2010\VC\INCLUDE\NEW
D:\IDE\MICROSOFT VISUAL STUDIO 2010\VC\INCLUDE\XUTILITY
D:\IDE\MICROSOFT VISUAL STUDIO 2010\VC\INCLUDE\UTILITY
D:\IDE\MICROSOFT VISUAL STUDIO 2010\VC\INCLUDE\IOSFWD
D:\IDE\MICROSOFT VISUAL STUDIO 2010\VC\INCLUDE\CWCHAR
D:\IDE\MICROSOFT VISUAL STUDIO 2010\VC\INCLUDE\WCHAR.H
D:\IDE\MICROSOFT VISUAL STUDIO 2010\VC\INCLUDE\WTIME.INL
D:\IDE\MICROSOFT VISUAL STUDIO 2010\VC\INCLUDE\CRTDBG.H
D:\IDE\MICROSOFT VISUAL STUDIO 2010\VC\INCLUDE\TYPE_TRAITS
D:\IDE\MICROSOFT VISUAL STUDIO 2010\VC\INCLUDE\LIMITS
D:\IDE\MICROSOFT VISUAL STUDIO 2010\VC\INCLUDE\YMATH.H
D:\IDE\MICROSOFT VISUAL STUDIO 2010\VC\INCLUDE\CFLOAT
D:\IDE\MICROSOFT VISUAL STUDIO 2010\VC\INCLUDE\FLOAT.H
D:\IDE\MICROSOFT VISUAL STUDIO 2010\VC\INCLUDE\CRTWRN.H
D:\IDE\MICROSOFT VISUAL STUDIO 2010\VC\INCLUDE\XTR1COMMON
D:\IDE\MICROSOFT VISUAL STUDIO 2010\VC\INCLUDE\XFWRAP
D:\IDE\MICROSOFT VISUAL STUDIO 2010\VC\INCLUDE\XFWRAP1
D:\IDE\MICROSOFT VISUAL STUDIO 2010\VC\INCLUDE\XXTYPE_TRAITS
D:\IDE\MICROSOFT VISUAL STUDIO 2010\VC\INCLUDE\TYPEINFO
D:\IDE\MICROSOFT VISUAL STUDIO 2010\VC\INCLUDE\XLOCINFO
D:\IDE\MICROSOFT VISUAL STUDIO 2010\VC\INCLUDE\XLOCINFO.H
D:\IDE\MICROSOFT VISUAL STUDIO 2010\VC\INCLUDE\CTYPE.H
D:\IDE\MICROSOFT VISUAL STUDIO 2010\VC\INCLUDE\LOCALE.H
D:\IDE\MICROSOFT VISUAL STUDIO 2010\VC\INCLUDE\XDEBUG
D:\IDE\MICROSOFT VISUAL STUDIO 2010\VC\INCLUDE\SYSTEM_ERROR
D:\IDE\MICROSOFT VISUAL STUDIO 2010\VC\INCLUDE\CERRNO
D:\IDE\MICROSOFT VISUAL STUDIO 2010\VC\INCLUDE\ERRNO.H
D:\IDE\MICROSOFT VISUAL STUDIO 2010\VC\INCLUDE\SHARE.H
D:\IDE\MICROSOFT VISUAL STUDIO 2010\VC\INCLUDE\VECTOR
D:\IDE\MICROSOFT VISUAL STUDIO 2010\VC\INCLUDE\MEMORY
D:\IDE\MICROSOFT VISUAL STUDIO 2010\VC\INCLUDE\INTRIN.H
D:\IDE\MICROSOFT VISUAL STUDIO 2010\VC\INCLUDE\SETJMP.H
D:\IDE\MICROSOFT VISUAL STUDIO 2010\VC\INCLUDE\SETJMPEX.H
D:\IDE\MICROSOFT VISUAL STUDIO 2010\VC\INCLUDE\XXSHARED
D:\IDE\MICROSOFT VISUAL STUDIO 2010\VC\INCLUDE\XFUNCTIONAL
D:\IDE\MICROSOFT VISUAL STUDIO 2010\VC\INCLUDE\STRING
D:\IDE\MICROSOFT VISUAL STUDIO 2010\VC\INCLUDE\STRSTREAM
D:\IDE\MICROSOFT VISUAL STUDIO 2010\VC\INCLUDE\ALGORITHM
E:\MYPROGRAMS\TIMELIMIT\TIMELIMIT\STRCONVERT.H
D:\IDE\MICROSOFT VISUAL STUDIO 2010\VC\INCLUDE\VCCLR.H
D:\IDE\MICROSOFT VISUAL STUDIO 2010\VC\INCLUDE\GCROOT.H
D:\IDE\MICROSOFT VISUAL STUDIO 2010\VC\INCLUDE\MSCLR\GCROOT.H
C:\PROGRAM FILES (X86)\MICROSOFT SDKS\WINDOWS\V7.0A\INCLUDE\WINDOWS.H
C:\PROGRAM FILES (X86)\MICROSOFT SDKS\WINDOWS\V7.0A\INCLUDE\SDKDDKVER.H
D:\IDE\MICROSOFT VISUAL STUDIO 2010\VC\INCLUDE\EXCPT.H
D:\IDE\MICROSOFT VISUAL STUDIO 2010\VC\INCLUDE\STDARG.H
C:\PROGRAM FILES (X86)\MICROSOFT SDKS\WINDOWS\V7.0A\INCLUDE\WINDEF.H
C:\PROGRAM FILES (X86)\MICROSOFT SDKS\WINDOWS\V7.0A\INCLUDE\WINNT.H
C:\PROGRAM FILES (X86)\MICROSOFT SDKS\WINDOWS\V7.0A\INCLUDE\SPECSTRINGS.H
C:\PROGRAM FILES (X86)\MICROSOFT SDKS\WINDOWS\V7.0A\INCLUDE\SAL_SUPP.H
C:\PROGRAM FILES (X86)\MICROSOFT SDKS\WINDOWS\V7.0A\INCLUDE\SPECSTRINGS_SUPP.H
C:\PROGRAM FILES (X86)\MICROSOFT SDKS\WINDOWS\V7.0A\INCLUDE\SPECSTRINGS_STRICT.H
C:\PROGRAM FILES (X86)\MICROSOFT SDKS\WINDOWS\V7.0A\INCLUDE\SPECSTRINGS_UNDEF.H
C:\PROGRAM FILES (X86)\MICROSOFT SDKS\WINDOWS\V7.0A\INCLUDE\DRIVERSPECS.H
C:\PROGRAM FILES (X86)\MICROSOFT SDKS\WINDOWS\V7.0A\INCLUDE\SDV_DRIVERSPECS.H
C:\PROGRAM FILES (X86)\MICROSOFT SDKS\WINDOWS\V7.0A\INCLUDE\KERNELSPECS.H
C:\PROGRAM FILES (X86)\MICROSOFT SDKS\WINDOWS\V7.0A\INCLUDE\BASETSD.H
C:\PROGRAM FILES (X86)\MICROSOFT SDKS\WINDOWS\V7.0A\INCLUDE\GUIDDEF.H
C:\PROGRAM FILES (X86)\MICROSOFT SDKS\WINDOWS\V7.0A\INCLUDE\PSHPACK4.H
C:\PROGRAM FILES (X86)\MICROSOFT SDKS\WINDOWS\V7.0A\INCLUDE\POPPACK.H
C:\PROGRAM FILES (X86)\MICROSOFT SDKS\WINDOWS\V7.0A\INCLUDE\PSHPACK2.H
C:\PROGRAM FILES (X86)\MICROSOFT SDKS\WINDOWS\V7.0A\INCLUDE\PSHPACK8.H
C:\PROGRAM FILES (X86)\MICROSOFT SDKS\WINDOWS\V7.0A\INCLUDE\KTMTYPES.H
C:\PROGRAM FILES (X86)\MICROSOFT SDKS\WINDOWS\V7.0A\INCLUDE\WINBASE.H
C:\PROGRAM FILES (X86)\MICROSOFT SDKS\WINDOWS\V7.0A\INCLUDE\WINERROR.H
C:\PROGRAM FILES (X86)\MICROSOFT SDKS\WINDOWS\V7.0A\INCLUDE\WINGDI.H
C:\PROGRAM FILES (X86)\MICROSOFT SDKS\WINDOWS\V7.0A\INCLUDE\PSHPACK1.H
C:\PROGRAM FILES (X86)\MICROSOFT SDKS\WINDOWS\V7.0A\INCLUDE\WINUSER.H
C:\PROGRAM FILES (X86)\MICROSOFT SDKS\WINDOWS\V7.0A\INCLUDE\TVOUT.H
C:\PROGRAM FILES (X86)\MICROSOFT SDKS\WINDOWS\V7.0A\INCLUDE\WINNLS.H
C:\PROGRAM FILES (X86)\MICROSOFT SDKS\WINDOWS\V7.0A\INCLUDE\WINCON.H
C:\PROGRAM FILES (X86)\MICROSOFT SDKS\WINDOWS\V7.0A\INCLUDE\WINVER.H
C:\PROGRAM FILES (X86)\MICROSOFT SDKS\WINDOWS\V7.0A\INCLUDE\VERRSRC.H
C:\PROGRAM FILES (X86)\MICROSOFT SDKS\WINDOWS\V7.0A\INCLUDE\WINREG.H
C:\PROGRAM FILES (X86)\MICROSOFT SDKS\WINDOWS\V7.0A\INCLUDE\REASON.H
C:\PROGRAM FILES (X86)\MICROSOFT SDKS\WINDOWS\V7.0A\INCLUDE\WINNETWK.H
C:\PROGRAM FILES (X86)\MICROSOFT SDKS\WINDOWS\V7.0A\INCLUDE\WNNC.H
C:\PROGRAM FILES (X86)\MICROSOFT SDKS\WINDOWS\V7.0A\INCLUDE\CDERR.H
C:\PROGRAM FILES (X86)\MICROSOFT SDKS\WINDOWS\V7.0A\INCLUDE\DDE.H
C:\PROGRAM FILES (X86)\MICROSOFT SDKS\WINDOWS\V7.0A\INCLUDE\DDEML.H
C:\PROGRAM FILES (X86)\MICROSOFT SDKS\WINDOWS\V7.0A\INCLUDE\DLGS.H
C:\PROGRAM FILES (X86)\MICROSOFT SDKS\WINDOWS\V7.0A\INCLUDE\LZEXPAND.H
C:\PROGRAM FILES (X86)\MICROSOFT SDKS\WINDOWS\V7.0A\INCLUDE\MMSYSTEM.H
C:\PROGRAM FILES (X86)\MICROSOFT SDKS\WINDOWS\V7.0A\INCLUDE\NB30.H
C:\PROGRAM FILES (X86)\MICROSOFT SDKS\WINDOWS\V7.0A\INCLUDE\RPC.H
C:\PROGRAM FILES (X86)\MICROSOFT SDKS\WINDOWS\V7.0A\INCLUDE\RPCDCE.H
C:\PROGRAM FILES (X86)\MICROSOFT SDKS\WINDOWS\V7.0A\INCLUDE\RPCDCEP.H
C:\PROGRAM FILES (X86)\MICROSOFT SDKS\WINDOWS\V7.0A\INCLUDE\RPCNSI.H
C:\PROGRAM FILES (X86)\MICROSOFT SDKS\WINDOWS\V7.0A\INCLUDE\RPCNTERR.H
C:\PROGRAM FILES (X86)\MICROSOFT SDKS\WINDOWS\V7.0A\INCLUDE\RPCASYNC.H
C:\PROGRAM FILES (X86)\MICROSOFT SDKS\WINDOWS\V7.0A\INCLUDE\SHELLAPI.H
C:\PROGRAM FILES (X86)\MICROSOFT SDKS\WINDOWS\V7.0A\INCLUDE\WINPERF.H
C:\PROGRAM FILES (X86)\MICROSOFT SDKS\WINDOWS\V7.0A\INCLUDE\WINSOCK.H
C:\PROGRAM FILES (X86)\MICROSOFT SDKS\WINDOWS\V7.0A\INCLUDE\INADDR.H
C:\PROGRAM FILES (X86)\MICROSOFT SDKS\WINDOWS\V7.0A\INCLUDE\WINCRYPT.H
C:\PROGRAM FILES (X86)\MICROSOFT SDKS\WINDOWS\V7.0A\INCLUDE\BCRYPT.H
C:\PROGRAM FILES (X86)\MICROSOFT SDKS\WINDOWS\V7.0A\INCLUDE\NCRYPT.H
C:\PROGRAM FILES (X86)\MICROSOFT SDKS\WINDOWS\V7.0A\INCLUDE\WINEFS.H
C:\PROGRAM FILES (X86)\MICROSOFT SDKS\WINDOWS\V7.0A\INCLUDE\WINSCARD.H
C:\PROGRAM FILES (X86)\MICROSOFT SDKS\WINDOWS\V7.0A\INCLUDE\WTYPES.H
C:\PROGRAM FILES (X86)\MICROSOFT SDKS\WINDOWS\V7.0A\INCLUDE\RPCNDR.H
C:\PROGRAM FILES (X86)\MICROSOFT SDKS\WINDOWS\V7.0A\INCLUDE\RPCNSIP.H
C:\PROGRAM FILES (X86)\MICROSOFT SDKS\WINDOWS\V7.0A\INCLUDE\RPCSAL.H
C:\PROGRAM FILES (X86)\MICROSOFT SDKS\WINDOWS\V7.0A\INCLUDE\WINIOCTL.H
C:\PROGRAM FILES (X86)\MICROSOFT SDKS\WINDOWS\V7.0A\INCLUDE\WINSMCRD.H
C:\PROGRAM FILES (X86)\MICROSOFT SDKS\WINDOWS\V7.0A\INCLUDE\WINSPOOL.H
C:\PROGRAM FILES (X86)\MICROSOFT SDKS\WINDOWS\V7.0A\INCLUDE\PRSHT.H
C:\PROGRAM FILES (X86)\MICROSOFT SDKS\WINDOWS\V7.0A\INCLUDE\OLE2.H
C:\PROGRAM FILES (X86)\MICROSOFT SDKS\WINDOWS\V7.0A\INCLUDE\OBJBASE.H
C:\PROGRAM FILES (X86)\MICROSOFT SDKS\WINDOWS\V7.0A\INCLUDE\UNKNWN.H
C:\PROGRAM FILES (X86)\MICROSOFT SDKS\WINDOWS\V7.0A\INCLUDE\OBJIDL.H
C:\PROGRAM FILES (X86)\MICROSOFT SDKS\WINDOWS\V7.0A\INCLUDE\CGUID.H
C:\PROGRAM FILES (X86)\MICROSOFT SDKS\WINDOWS\V7.0A\INCLUDE\URLMON.H
C:\PROGRAM FILES (X86)\MICROSOFT SDKS\WINDOWS\V7.0A\INCLUDE\OLEIDL.H
C:\PROGRAM FILES (X86)\MICROSOFT SDKS\WINDOWS\V7.0A\INCLUDE\SERVPROV.H
C:\PROGRAM FILES (X86)\MICROSOFT SDKS\WINDOWS\V7.0A\INCLUDE\MSXML.H
C:\PROGRAM FILES (X86)\MICROSOFT SDKS\WINDOWS\V7.0A\INCLUDE\OAIDL.H
C:\PROGRAM FILES (X86)\MICROSOFT SDKS\WINDOWS\V7.0A\INCLUDE\PROPIDL.H
C:\PROGRAM FILES (X86)\MICROSOFT SDKS\WINDOWS\V7.0A\INCLUDE\OLEAUTO.H
C:\PROGRAM FILES (X86)\MICROSOFT SDKS\WINDOWS\V7.0A\INCLUDE\COMMDLG.H
C:\PROGRAM FILES (X86)\MICROSOFT SDKS\WINDOWS\V7.0A\INCLUDE\STRALIGN.H
C:\PROGRAM FILES (X86)\MICROSOFT SDKS\WINDOWS\V7.0A\INCLUDE\WINSVC.H
C:\PROGRAM FILES (X86)\MICROSOFT SDKS\WINDOWS\V7.0A\INCLUDE\MCX.H
C:\PROGRAM FILES (X86)\MICROSOFT SDKS\WINDOWS\V7.0A\INCLUDE\IMM.H
C:\PROGRAM FILES (X86)\MICROSOFT SDKS\WINDOWS\V7.0A\INCLUDE\IME_CMODES.H
C:\PROGRAM FILES (X86)\REFERENCE ASSEMBLIES\MICROSOFT\FRAMEWORK\.NETFRAMEWORK\V4.0\MICROSOFT.VISUALC.DLL
^C:\USERS\UFOTALENT\APPDATA\LOCAL\TEMP\.NETFRAMEWORK,VERSION=V4.0.ASSEMBLYATTRIBUTES.CPP
D:\IDE\MICROSOFT VISUAL STUDIO 2010\VC\BIN\1033\CLUI.DLL
C:\WINDOWS\GLOBALIZATION\SORTING\SORTDEFAULT.NLS
C:\WINDOWS\SYSTEM32\RSAENH.DLL
C:\WINDOWS\MICROSOFT.NET\FRAMEWORK\V2.0.50727\MSCORWKS.DLL
C:\WINDOWS\MICROSOFT.NET\FRAMEWORK\V4.0.30319\CLR.DLL
D:\IDE\MICROSOFT VISUAL STUDIO 2010\VC\BIN\CL.EXE.CONFIG
C:\WINDOWS\SYSTEM32\TZRES.DLL
C:\WINDOWS\MICROSOFT.NET\FRAMEWORK\V4.0.30319\MSCORLIB.DLL
C:\WINDOWS\MICROSOFT.NET\FRAMEWORK\V4.0.30319\MICROSOFT.VISUALC.DLL
