^E:\VISUAL STUDIO FILES\TIMELIMIT\TIMELIMIT\APP.RC
E:\VISUAL STUDIO FILES\TIMELIMIT\TIMELIMIT\RELEASE\APP.RES
^E:\MYPROGRAMS\TIMELIMIT\TIMELIMIT\APP.RC
E:\MYPROGRAMS\TIMELIMIT\TIMELIMIT\RELEASE\APP.RES
